.Xil/Vivado-566-LiPtPDesktop/hw_ila_data_2/zip_work/waveform.vcd
$date
        2025-Dec-23 16:19:29
$end
$version
        Vivado v2024.2 (64-bit)
$end
$timescale
        1ps
$end
$scope module dut $end
$var reg 12 " DAC_I [11:0] $end
$var reg 12 . DAC_Q [11:0] $end
$var reg 1 : tx_serial $end
$var reg 16 ; I_16M [15:0] $end
$var reg 16 K Q_16M [15:0] $end
$var reg 16 [ error_tdata [15:0] $end
$var reg 16 k feedback_tdata [15:0] $end
$var reg 16 { I_1M [15:0] $end
$var reg 16 -" Q_1M [15:0] $end
$var reg 1 =" clk_1M_out $end
$var reg 16 >" gardner_error [15:0] $end
$var reg 16 N" gardner_increment [15:0] $end
$var reg 1 ^" BPSK_raw $end
$var reg 2 _" QPSK_raw [1:0] $end
$var reg 1 a" SD_flag $end
$var reg 1 b" PD_flag $end
$var reg 1 c" BD_flag $end
$var reg 1 d" rx_data_tlast $end
$var reg 1 e" BPSK $end
$var reg 2 f" QPSK [1:0] $end
$var reg 1 h" rx_serial $end
$var reg 1 i" Rx_valid $end
$var reg 12 j" ADC_I [11:0] $end
$var reg 12 v" ADC_Q [11:0] $end
$var reg 1 $# _TRIGGER $end
$var reg 1 %# _WINDOW $end
$var reg 1 &# _GAP $end
$upscope $end
$enddefinitions $end
#0
$dumpvars
b11111111110 "
b10 .
0:
b1111100011001111 ;
b1111101011010011 K
b1111111111110111 [
b0 k
b11001001101 {
b10011110100 -"
0="
b110001 >"
b10000000000001 N"
0^"
b0 _"
1a"
1b"
1c"
0d"
0e"
b0 f"
1h"
0i"
b101011011111 j"
b111111011000 v"
0$#
1%#
0&#
$end
#1
b111111111110 "
b11111111110 .
b1111100001101100 ;
b1111101100011100 K
b1110 [
b1111 >"
b101000011111 j"
b110011100111 v"
#2
b1111111111101001 >"
b101000011110 j"
b101000100001 v"
#3
b100000000010 "
b111111111110 .
b1111100000100010 ;
b1111101101000111 K
b11000 [
b1 k
b1111111111010001 >"
b1110011100 j"
b111001000010 v"
#4
b110 >"
b11111111111 j"
b1100000000 v"
#5
b10 "
b100000000010 .
b1111100010110011 ;
b1111101010110110 K
b100001 [
b10 k
b1111111111111000 >"
b10111001000 j"
b10010001111 v"
#6
b1111111111101110 >"
b110110 j"
b1011011110 v"
#7
b11111111110 "
b10 .
b1111100010001000 ;
b1111101010101000 K
b100111 [
b101 k
b1111111111101000 >"
#8
b1111111111101001 >"
b110100011000 j"
b1100100 v"
#9
b111111111110 "
b11111111110 .
b1111100100010011 ;
b1111101100010011 K
b11001 [
b111 k
b1111111111101101 >"
b101001011100 j"
b111110011000 v"
#10
b1111111111110010 >"
b101100000101 j"
b110101110111 v"
#11
b100000000010 "
b111111111110 .
b1111100111001101 ;
b1111101101010111 K
b11011 [
b1010 k
b1111111111111010 >"
b1100101001 j"
b111000111111 v"
#12
b101 >"
b11111111111 j"
b1001100100 v"
#13
b10 "
b100000000010 .
b1111100110101001 ;
b1111110001000111 K
b10111 [
b1101 k
b1111111111011100 >"
b10110000001 j"
b10011001000 v"
#14
b10 >"
b1111100 j"
b1011111011 v"
#15
b11111111110 "
b10 .
b1111101101000100 ;
b1111110110101001 K
b10000 [
b1110 k
b100000 >"
b110011111110 j"
b100100 v"
#16
b1111111111110100 >"
b101010110010 j"
b111111101010 v"
#17
b111111111110 "
b11111111110 .
b1111101111010101 ;
b1111111010110100 K
b11010 [
b1111 k
b1111111111010011 >"
b101000100000 j"
b110011101011 v"
#18
b1111111111111101 >"
b101001101011 j"
b101000010100 v"
#19
b100000000010 "
b111111111110 .
b1111111001100110 ;
b111001001 K
b10000 [
b1110 k
b10100 >"
b1101011111 j"
b111000111010 v"
#20
b1111111111011101 >"
b11111111111 j"
b1011100110 v"
#21
b10 "
b100000000010 .
b100100 ;
b1010100100 K
b1111 [
b1011 k
b1111111111100100 >"
b10110101111 j"
b10010011010 v"
#22
b1111111111101110 >"
b101110 j"
b1011011100 v"
#23
b11111111110 "
b10 .
b1000001011 ;
b10101010011 K
b1111111111111111 [
b1000 k
b1111111111111000 >"
#24
b1111111111111111 >"
b110100111000 j"
b111100 v"
#25
b111111111110 "
b11111111110 .
b10000001001 ;
b10111010101 K
b1111111111111001 [
b101 k
b1111101000001111 {
b1111110010011111 -"
1="
b1111111111111101 >"
0h"
1i"
b101001011000 j"
b111110100110 v"
#26
0="
b1111111111110011 >"
b1111111111111 N"
1^"
b11 _"
1e"
b11 f"
0i"
b101011110111 j"
b110101110100 v"
#27
b100000000010 "
b111111111110 .
b10101000111 ;
b11011111100 K
b1111111111100111 [
b1 k
b101000 >"
b1100000011 j"
b111000110010 v"
#28
b11111 >"
b11111111111 j"
b1001011001 v"
#29
b10 "
b100000000010 .
b11000111011 ;
b11101111000 K
b1111111111101110 [
b1111111111111110 k
b1100 >"
b10110101011 j"
b10010110001 v"
#30
b1111111111101001 >"
b1011100 j"
b1011100101 v"
#31
b100000000010 "
b111111111110 .
b11011011011 ;
b100010010110 K
b1111111111101011 [
b1111111111111010 k
b1111 >"
b110100010101 j"
b1001000 v"
#32
b1111111111111110 >"
b101010010011 j"
b111111011100 v"
#33
b10 "
b100000000010 .
b11100101001 ;
b100011000100 K
b1111111111101111 [
b1111111111110111 k
b1111111111100010 >"
b101001110111 j"
b110011010011 v"
#34
b1 >"
b100110011111 j"
b100111011001 v"
#35
b11111111110 "
b10 .
b11101101000 ;
b100010101100 K
b1111111111100101 [
b1111111111110100 k
b101001 >"
b100111101111 j"
b111000111101 v"
#36
b100000 >"
b101110110010 j"
b110011110 v"
#37
b111111111110 "
b11111111110 .
b11101001111 ;
b100010110100 K
b1111111111100110 [
b1111111111110010 k
b11000 >"
b101000011001 j"
b110100100100 v"
#38
b10000 >"
b101011010101 j"
b100110001011 v"
#39
b100000000010 "
b111111111110 .
b11010110100 ;
b100000110110 K
b1111111111101011 [
b1111111111110001 k
b110 >"
#40
b10 >"
b1100001010 j"
b111001000111 v"
#41
b10 "
b100000000010 .
b11011001000 ;
b100000000101 K
b1111111111101001 [
b110 >"
b11111111111 j"
b1100001001 v"
#42
b10100 >"
b10100011001 j"
b10010100010 v"
#43
b11111111110 "
b10 .
b11011110001 ;
b11011110010 K
b1111111111110011 k
b1111111111100001 >"
b110010010111 j"
b1011101011 v"
#44
b1111111111101011 >"
b101000010101 j"
b111111000011 v"
#45
b111111111110 "
b11111111110 .
b11001110110 ;
b10101000110 K
b1111111111101101 [
b1111111111110101 k
b11 >"
b101000011110 j"
b110001001010 v"
#46
b101010 >"
b101011100100 j"
b101001001110 v"
#47
b100000000010 "
b111111111110 .
b10111100100 ;
b10000010101 K
b1111111111111111 [
b1111111111111000 k
b1000 >"
b1011110011 j"
b111001100101 v"
#48
b1111111111011100 >"
b11111111111 j"
b1011010100 v"
#49
b10 "
b100000000010 .
b10101010011 ;
b1011111110 K
b1101 [
b1111111111111100 k
b1111111111110110 >"
b10110110100 j"
b10010001111 v"
#50
b10101 >"
b111111 j"
b1011101010 v"
#51
b11111111110 "
b10 .
b1011111110 ;
b1111111110110011 K
b10010 [
b1111111111111110 k
b1111111111101011 >"
b110011110011 j"
b1001100 v"
#52
b1111111111111100 >"
b101010110000 j"
b111111110011 v"
#53
b111111111110 "
b11111111110 .
b110111001 ;
b1111111001010001 K
b10011 [
b0 k
b111 >"
b101000001011 j"
b110010110111 v"
#54
b1111 >"
b101011100001 j"
b100111110100 v"
#55
b100000000010 "
b111111111110 .
b1111111010101011 ;
b1111101101101111 K
b1000 [
b1 k
b10101 >"
#56
b10010 >"
b1100011110 j"
b111001010111 v"
#57
b10 "
b100000000010 .
b1111110100001010 ;
b1111101110111111 K
b0 [
b11001010001 {
b10011111001 -"
1="
b1101 >"
1h"
1i"
b11111111111 j"
b1011010011 v"
#58
0="
b101 >"
b10000000000001 N"
0^"
b0 _"
0e"
b0 f"
0i"
b10100010011 j"
b10010010000 v"
#59
b11111111110 "
b10 .
b1111101100010001 ;
b1111100110111001 K
b1111111111101100 [
b1111111111111010 >"
b110010110110 j"
b1011100011 v"
#60
b1111111111110000 >"
b101000001111 j"
b111111011111 v"
#61
b111111111110 "
b11111111110 .
b1111100111011111 ;
b1111101001111000 K
b1111111111110110 [
b0 k
b10011 >"
b101000010011 j"
b110001001010 v"
#62
b1111111111100101 >"
b101010111110 j"
b101000110110 v"
#63
b11111111110 "
b10 .
b1111100010101101 ;
b1111101000101101 K
b1111111111110000 [
b101 >"
b1101000000 j"
b111001000100 v"
#64
b110001 >"
b11111111111 j"
b1011010000 v"
#65
b111111111110 "
b11111111110 .
b1111100011010101 ;
b1111101111000100 K
b110 [
b1111 >"
b10111000011 j"
b10010111110 v"
#66
b1111111111101001 >"
b101111000 j"
b1001110000 v"
#67
b100000000010 "
b111111111110 .
b1111100001101010 ;
b1111101101000001 K
b10011 [
b1 k
b1111111111010011 >"
b10110000011 j"
b110001110111 v"
#68
b100 >"
b11111111111 j"
b110111011110 v"
#69
b10 "
b100000000010 .
b1111100110101111 ;
b1111110001011101 K
b100001 [
b10 k
b1111111111110101 >"
b10101110100 j"
b10010000101 v"
#70
b1111111111100101 >"
b1110001 j"
b1111000010 v"
#71
b11111111110 "
b10 .
b1111100101100000 ;
b1111101101110010 K
b100011 [
b101 k
b1111111111011111 >"
#72
b1111111111101000 >"
b110100101110 j"
b100011 v"
#73
b111111111110 "
b11111111110 .
b1111101001011100 ;
b1111110100011100 K
b11010 [
b1000 k
b1111111111101101 >"
b101001101000 j"
b111110001111 v"
#74
b1111111111101110 >"
b101011110001 j"
b110101110110 v"
#75
b100000000010 "
b111111111110 .
b1111101010010000 ;
b1111101111000101 K
b10111 [
b1011 k
b1111111111111000 >"
b1100011110 j"
b111000111010 v"
#76
b110 >"
b11111111111 j"
b1001100111 v"
#77
b10 "
b100000000010 .
b1111101011010000 ;
b1111110010010010 K
b1101 k
b1111111111011110 >"
b10110000101 j"
b10011001001 v"
#78
b100 >"
b1110101 j"
b1011100100 v"
#79
b11111111110 "
b10 .
b1111101010101111 ;
b1111101111101011 K
b1011 [
b1111 k
b100000 >"
b110100001101 j"
b101111 v"
#80
b1111111111110011 >"
b101011001001 j"
b111111100000 v"
#81
b111111111110 "
b11111111110 .
b1111101000011101 ;
b1111110000101001 K
b1111 [
b10001 >"
b101000111001 j"
b110011100100 v"
#82
b1111111111111000 >"
b101000001011 j"
b101000001110 v"
#83
b100000000010 "
b111111111110 .
b1111101001101010 ;
b1111110000010111 K
b1011 [
b1110 k
b1100 >"
b1110011111 j"
b111001000101 v"
#84
b1111111111010001 >"
b11111111111 j"
b1011011111 v"
#85
b10 "
b100000000010 .
b1111101001101000 ;
b1111110000100001 K
b10011 [
b1100 k
b1111111111011111 >"
b10110100101 j"
b10011000000 v"
#86
b1111111111110101 >"
b110110 j"
b1011011100 v"
#87
b11111111110 "
b10 .
b1111100111010101 ;
b1111101111001000 K
b1111 [
b1001 k
b1 >"
#88
b1111111111111000 >"
b110101010101 j"
b110010 v"
#89
b111111111110 "
b11111111110 .
b1111101000011100 ;
b1111110000000100 K
b10000 [
b101 k
b1111101011000111 {
b1111110001101000 -"
1="
0h"
1i"
b101010000011 j"
b111111000000 v"
#90
0="
b1111111111111111 >"
b1111111111111 N"
1^"
b11 _"
1e"
b11 f"
0i"
b101011011110 j"
b110101101010 v"
#91
b100000000010 "
b111111111110 .
b1111101100000001 ;
b1111110011110111 K
b10100 [
b1 k
b1111111111111011 >"
b1100010000 j"
b111001001001 v"
#92
b1111111111110000 >"
b11111111111 j"
b1001101000 v"
#93
b10 "
b100000000010 .
b1111100111010111 ;
b1111101110111101 K
b10010 [
b1111111111111110 k
b100110 >"
b10111000000 j"
b10010110011 v"
#94
b11001 >"
b1001101 j"
b1011100011 v"
#95
b100000000010 "
b111111111110 .
b1111101001110010 ;
b1111110011011001 K
b1111 [
b1111111111111010 k
b1001 >"
b110011111101 j"
b1010000 v"
#96
b1111111111111100 >"
b101010010001 j"
b111111100010 v"
#97
b10 "
b100000000010 .
b1111100111111110 ;
b1111101101110011 K
b10011 [
b1111111111110111 k
b1111111111101110 >"
b101001000101 j"
b110011000000 v"
#98
b1111111111100101 >"
b100110100000 j"
b101000001010 v"
#99
b11111111110 "
b10 .
b1111101001011000 ;
b1111101111101001 K
b10100 [
b1111111111110100 k
b11010 >"
b101001011100 j"
b111001000001 v"
#100
b10010 >"
b101101000011 j"
b110110101 v"
#101
b111111111110 "
b11111111110 .
b1111100110011111 ;
b1111101001010100 K
b1111 [
b1111111111110010 k
b111 >"
b101001001010 j"
b110100111010 v"
#102
b1111111111111010 >"
b101010110010 j"
b100110001011 v"
#103
b100000000010 "
b111111111110 .
b1111100100101010 ;
b1111101011101000 K
b1111111111110001 k
b1111111111110101 >"
#104
b1111111111111001 >"
b1100110011 j"
b111000101010 v"
#105
b10 "
b100000000010 .
b1111100011001010 ;
b1111101000000010 K
b1000 [
b1111111111110111 >"
b11111111111 j"
b1100011010 v"
#106
b1111111111101110 >"
b10011110111 j"
b10010010100 v"
#107
b11111111110 "
b10 .
b1111100110011001 ;
b1111101101110110 K
b10100 [
b1111111111110011 k
b110010010101 j"
b1011010101 v"
#108
b1111111111110110 >"
b101001001110 j"
b111111000111 v"
#109
b111111111110 "
b11111111110 .
b1111100100000011 ;
b1111101101001001 K
b10000 [
b1111111111110101 k
b1111111111110111 >"
b101000011101 j"
b110001000101 v"
#110
b1111111111110100 >"
b101010100000 j"
b101000110000 v"
#111
b100000000010 "
b111111111110 .
b1111101010101101 ;
b1111111000000001 K
b10100 [
b1111111111111000 k
b1111111111110111 >"
b1101001101 j"
b111001100000 v"
#112
b10 >"
b11111111111 j"
b1011101101 v"
#113
b10 "
b100000000010 .
b1111101111011111 ;
b1111111011000101 K
b11010 [
b1111111111111100 k
b110 >"
b10110110000 j"
b10010001110 v"
#114
b11 >"
b1000011 j"
b1011101111 v"
#115
b11111111110 "
b10 .
b1111111001100101 ;
b110111001 K
b11000 [
b1111111111111110 k
b1000 >"
b110011111011 j"
b1001001 v"
#116
b10001 >"
b101010111101 j"
b111111011101 v"
#117
b111111111110 "
b11111111110 .
b10001 ;
b1010100001 K
b1111 [
b0 k
b101000000011 j"
b110010110110 v"
#118
b1001 >"
b101011001111 j"
b101000100101 v"
#119
b100000000010 "
b111111111110 .
b1000000001 ;
b10101011010 K
b1111111111111111 [
b1 k
b111 >"
#120
b1101 >"
b1100101010 j"
b111001000110 v"
#121
b10 "
b100000000010 .
b1111111110 ;
b10111011101 K
b1111111111111001 [
b10 k
b1111100101101101 {
b1111101111110111 -"
1="
b1010 >"
1h"
1i"
b11111111111 j"
b1100001000 v"
#122
0="
b1111111111111100 >"
b10000000000001 N"
0i"
b10101011100 j"
b10010100011 v"
#123
b11111111110 "
b10 .
b10100111001 ;
b11100000111 K
b1111111111100111 [
b1 k
b1111111111110110 >"
b110001100111 j"
b1011011000 v"
#124
b1111111111101101 >"
b101001000111 j"
b111111001110 v"
#125
b111111111110 "
b11111111110 .
b11000100111 ;
b11110001000 K
b1111111111101101 [
b0 k
b1111111111100001 >"
b101000001100 j"
b110001101000 v"
#126
b1111111111010111 >"
b101010111011 j"
b101000101110 v"
#127
b11111111110 "
b10 .
b11010111101 ;
b100010100010 K
b1111111111101001 [
b1111111111001011 >"
b1100101110 j"
b111001001001 v"
#128
b111110 >"
b11111111111 j"
b1011100101 v"
#129
b111111111110 "
b11111111110 .
b11100000011 ;
b100011011000 K
b1111111111101101 [
b1111111111111111 k
b101110 >"
b10110011110 j"
b10010101100 v"
#130
b11101 >"
b110000011 j"
b1010001001 v"
#131
b100000000010 "
b111111111110 .
b11101001001 ;
b100011000100 K
b1111111111100010 [
b0 k
b10000 >"
b10110111100 j"
b110110100000 v"
#132
b101 >"
b11111111111 j"
b111010101110 v"
#133
b10 "
b100000000010 .
b11100101111 ;
b100011000111 K
b10 k
b10 >"
b10101011111 j"
b10001101100 v"
#134
b1011 >"
b1111010 j"
b1110111000 v"
#135
b11111111110 "
b10 .
b11010010110 ;
b100001001001 K
b1111111111101000 [
b100 k
b1000 >"
#136
b1111111111111010 >"
b110100010111 j"
b111111 v"
#137
b111111111110 "
b11111111110 .
b11010110000 ;
b100000010110 K
b1111111111100110 [
b110 k
b1111111111111101 >"
b101001010011 j"
b111110100011 v"
#138
b1111111111011001 >"
b101100000001 j"
b110110001011 v"
#139
b100000000010 "
b111111111110 .
b11011011100 ;
b11011111000 K
b1001 k
b1111111111101010 >"
b1100101010 j"
b111000111000 v"
#140
b1111111111110100 >"
b11111111111 j"
b1001011101 v"
#141
b10 "
b100000000010 .
b11001011101 ;
b10101000101 K
b1111111111101011 [
b1010 k
b1011 >"
b10110111110 j"
b10011010001 v"
#142
b1111111111101111 >"
b1011001 j"
b1011101100 v"
#143
b11111111110 "
b10 .
b10111010100 ;
b10000001110 K
b1111111111111110 [
b1011 k
b1001 >"
b110100001111 j"
b100000 v"
#144
b1111111111011101 >"
b101010110111 j"
b111111110101 v"
#145
b111111111110 "
b11111111110 .
b10101001100 ;
b1011111101 K
b1100 [
b1100 k
b1111111111110110 >"
b101000001010 j"
b110011101110 v"
#146
b10011 >"
b101010010110 j"
b100111111011 v"
#147
b100000000010 "
b111111111110 .
b1011111110 ;
b1111111110101111 K
b10001 [
b1011 k
b1111111111101010 >"
b1101011111 j"
b111001010110 v"
#148
b0 >"
b11111111111 j"
b1011100101 v"
#149
b10 "
b100000000010 .
b110111011 ;
b1111111001001011 K
b10011 [
b1010 k
b1110 >"
b10101111110 j"
b10010011111 v"
#150
b10010 >"
b1011011 j"
b1011100001 v"
#151
b11111111110 "
b10 .
b1111111010101111 ;
b1111101101100011 K
b1000 [
b1000 k
b11000 >"
#152
b11001 >"
b110100100011 j"
b1010011 v"
#153
b111111111110 "
b11111111110 .
b1111110100100100 ;
b1111101110100010 K
b0 [
b111 k
b11000111010 {
b10011110111 -"
1="
b10110 >"
1i"
b101001100001 j"
b111111001101 v"
#154
0="
b101 >"
b10000000000010 N"
0^"
b0 _"
0e"
b0 f"
0i"
b101011011010 j"
b110110110000 v"
#155
b100000000010 "
b111111111110 .
b1111101111000001 ;
b1111101011010000 K
b1111111111101100 [
b110 k
b1111111111111010 >"
b1100110101 j"
b111001000000 v"
#156
b1111111111101100 >"
b11111111111 j"
b1000111111 v"
#157
b10 "
b100000000010 .
b1111100101111011 ;
b1111101010110100 K
b1111111111110101 [
b1110 >"
b10111000100 j"
b10011001010 v"
#158
b1111111111100110 >"
b1100110 j"
b1011111010 v"
#159
b100000000010 "
b111111111110 .
b1111100011011000 ;
b1111101011011010 K
b1111111111110111 [
b101 >"
b110011110001 j"
b110000 v"
#160
b110001 >"
b101010110001 j"
b111111100111 v"
#161
b10 "
b100000000010 .
b1111100001111010 ;
b1111101100011100 K
b1110 [
b1111 >"
b101001011101 j"
b110011011100 v"
#162
b1111111111101000 >"
b100110010011 j"
b100111100001 v"
#163
b11111111110 "
b10 .
b1111100000100101 ;
b1111101101000001 K
b11000 [
b111 k
b1111111111010000 >"
b101001001111 j"
b111000111010 v"
#164
b111 >"
b101101011111 j"
b111001111 v"
#165
b111111111110 "
b11111111110 .
b1111100010110100 ;
b1111101010110000 K
b100000 [
b1111111111111001 >"
b101001000010 j"
b110100110100 v"
#166
b1111111111110000 >"
b101010010110 j"
b100110001101 v"
#167
b100000000010 "
b111111111110 .
b1111100010000101 ;
b1111101010101000 K
b100111 [
b1111111111101001 >"
#168
b1111111111101010 >"
b1100111110 j"
b111001000001 v"
#169
b10 "
b100000000010 .
b1111100100001110 ;
b1111101100010010 K
b11001 [
b1111111111101101 >"
b11111111111 j"
b1100001000 v"
#170
b1111111111110100 >"
b10100000000 j"
b10010010011 v"
#171
b11111111110 "
b10 .
b1111100111000100 ;
b1111101101011100 K
b11011 [
b1000 k
b1111111111111011 >"
b110010100110 j"
b1011111110 v"
#172
b101 >"
b101000111000 j"
b111110111001 v"
#173
b111111111110 "
b11111111110 .
b1111100110100110 ;
b1111110001010011 K
b10111 [
b1111111111011100 >"
b101000110101 j"
b110001000100 v"
#174
b11 >"
b101001110101 j"
b101001000110 v"
#175
b100000000010 "
b111111111110 .
b1111101100111001 ;
b1111110110111001 K
b10001 [
b1001 k
b100000 >"
b1101100101 j"
b111001100110 v"
#176
b1111111111110101 >"
b11111111111 j"
b1011001110 v"
#177
b10 "
b100000000010 .
b1111101111000110 ;
b1111111011010011 K
b11010 [
b1010 k
b1111111111010011 >"
b10111010010 j"
b10010101001 v"
#178
b1111111111111100 >"
b1001001 j"
b1011100001 v"
#179
b11111111110 "
b10 .
b1111111001010101 ;
b111101101 K
b10001 [
b10011 >"
b110100001111 j"
b1000101 v"
#180
b1111111111011100 >"
b101011001010 j"
b111111101010 v"
#181
b111111111110 "
b11111111110 .
b1100 ;
b1011001110 K
b10000 [
b1001 k
b1111111111100101 >"
b100111111111 j"
b110010111011 v"
#182
b1111111111101101 >"
b101011101001 j"
b100111111110 v"
#183
b100000000010 "
b111111111110 .
b111111101 ;
b10110000111 K
b1111111111111111 [
b1000 k
b1111111111110111 >"
#184
b1111111111111101 >"
b1011010011 j"
b111001010111 v"
#185
b10 "
b100000000010 .
b1111100110 ;
b11000010000 K
b1111111111111000 [
b110 k
b1111101000001010 {
b1111110010101100 -"
1="
b1111111111111011 >"
0h"
1i"
b11111111111 j"
b1100000001 v"
#186
0="
b1111111111110001 >"
b1111111111111 N"
1^"
b11 _"
1e"
b11 f"
0i"
b10100101000 j"
b10010011100 v"
#187
b11111111110 "
b10 .
b10100111000 ;
b11100011011 K
b1111111111100101 [
b11 k
b101000 >"
b110010101001 j"
b1011011011 v"
#188
b11111 >"
b101000111010 j"
b111111001110 v"
#189
b111111111110 "
b11111111110 .
b11000110000 ;
b11110000110 K
b1111111111101010 [
b0 k
b1010 >"
b101000100101 j"
b110001100011 v"
#190
b1111111111101011 >"
b101000110110 j"
b101001000100 v"
#191
b11111111110 "
b10 .
b11011001111 ;
b100010010001 K
b1111111111101000 [
b1111111111111100 k
b1110 >"
b1110011000 j"
b111001011000 v"
#192
b1111111111111101 >"
b11111111111 j"
b1011000101 v"
#193
b111111111110 "
b11111111110 .
b11100011100 ;
b100010110100 K
b1111111111101101 [
b1111111111111000 k
b1111111111100010 >"
b10111000100 j"
b10010101001 v"
#194
b0 >"
b101101110 j"
b1010001000 v"
#195
b100000000010 "
b111111111110 .
b11101100100 ;
b100010011000 K
b1111111111100100 [
b1111111111110100 k
b1111111111101100 >"
b10110111001 j"
b110110000001 v"
#196
b100011 >"
b11111111111 j"
b111011000010 v"
#197
b10 "
b100000000010 .
b11101001100 ;
b100010010111 K
b1111111111100110 [
b1111111111110001 k
b11000 >"
b10101111001 j"
b10010000010 v"
#198
b1111 >"
b1010011 j"
b1110011111 v"
#199
b11111111110 "
b10 .
b11010100110 ;
b100000100101 K
b1111111111101100 [
b1111111111110000 k
b1001 >"
#200
b11 >"
b110100001110 j"
b101010 v"
#201
b111111111110 "
b11111111110 .
b11010110101 ;
b100000000111 K
b1111111111101011 [
b1111111111101111 k
b101 >"
b101001011110 j"
b111110010011 v"
#202
b10110 >"
b101011101111 j"
b110101110001 v"
#203
b100000000010 "
b111111111110 .
b11011001111 ;
b11100000011 K
b1111111111101001 [
b1111111111110001 k
b1111111111100011 >"
b1100011000 j"
b111000111111 v"
#204
b1111111111101100 >"
b11111111111 j"
b1001100011 v"
#205
b10 "
b100000000010 .
b11001000011 ;
b10101110001 K
b1111111111101100 [
b1111111111110011 k
b101 >"
b10110100011 j"
b10011000100 v"
#206
b101011 >"
b1100101 j"
b1011100110 v"
#207
b11111111110 "
b10 .
b10110100011 ;
b10001011101 K
b1111111111111101 [
b1111111111110111 k
b1001 >"
b110100011011 j"
b101011 v"
#208
b1111111111011101 >"
b101010110010 j"
b111111101000 v"
#209
b111111111110 "
b11111111110 .
b10100001111 ;
b1101010100 K
b1001 [
b1111111111111010 k
b1111111111110110 >"
b101000101000 j"
b110011010010 v"
#210
b10111 >"
b101001011101 j"
b101000001101 v"
#211
b100000000010 "
b111111111110 .
b1010110001 ;
b10001 K
b1100 [
b1111111111111101 k
b1111111111101100 >"
b1110011001 j"
b111000101101 v"
#212
b1111111111111100 >"
b11111111111 j"
b1011011010 v"
#213
b10 "
b100000000010 .
b101110010 ;
b1111111010101001 K
b1110 [
b0 k
b1001 >"
b10110110110 j"
b10011001000 v"
#214
b10010 >"
b100011 j"
b1011011100 v"
#215
b11111111110 "
b10 .
b1111111001101010 ;
b1111101110110001 K
b111 [
b1 k
b10101 >"
#216
b10011 >"
b110100011111 j"
b101011 v"
#217
b111111111110 "
b11111111110 .
b1111110011110000 ;
b1111101111100001 K
b0 [
b11000011011 {
b10100101100 -"
1="
b1110 >"
1h"
1i"
b101001001000 j"
b111110101000 v"
#218
0="
b101 >"
b10000000000001 N"
0^"
b0 _"
0e"
b0 f"
0i"
b101100001010 j"
b110101110111 v"
#219
b100000000010 "
b111111111110 .
b1111101110100101 ;
b1111101011101110 K
b1111111111101111 [
b1111111111111001 >"
b1011110110 j"
b111000100001 v"
#220
b1111111111101101 >"
b11111111111 j"
b1001101101 v"
#221
b10 "
b100000000010 .
b1111100101110110 ;
b1111101010111011 K
b1111111111111000 [
b10011 >"
b10110110100 j"
b10010101011 v"
#222
b1111111111100111 >"
b1011011 j"
b1011101001 v"
#223
b100000000010 "
b111111111110 .
b1111100011101010 ;
b1111101011001100 K
b1111111111111001 [
b0 k
b11 >"
b110100000011 j"
b1000100 v"
#224
b1111111111110001 >"
b101010111000 j"
b111111011001 v"
#225
b10 "
b100000000010 .
b1111100010011101 ;
b1111101011111101 K
b1110 [
b10001 >"
b101001011001 j"
b110011011000 v"
#226
b1111111111100111 >"
b100110010010 j"
b100111110000 v"
#227
b11111111110 "
b10 .
b1111100001010111 ;
b1111101100100010 K
b10111 [
b1 k
b1111111111010001 >"
b101001000011 j"
b111000101111 v"
#228
b110 >"
b101101100111 j"
b110100110 v"
#229
b111111111110 "
b11111111110 .
b1111100011101111 ;
b1111101010010111 K
b11101 [
b10 k
b1111111111111001 >"
b101001101011 j"
b110100110100 v"
#230
b1111111111101100 >"
b101001110110 j"
b100110001110 v"
#231
b100000000010 "
b111111111110 .
b1111100011000011 ;
b1111101010001100 K
b100010 [
b101 k
b1111111111101001 >"
#232
b1111111111101011 >"
b1101011001 j"
b111000101011 v"
#233
b10 "
b100000000010 .
b1111100101000011 ;
b1111101100000001 K
b10100 [
b1000 k
b11111111111 j"
b1100000111 v"
#234
b1111111111110010 >"
b10100001010 j"
b10010101011 v"
#235
b11111111110 "
b10 .
b1111100111110101 ;
b1111101101010000 K
b10110 [
b1011 k
b1111111111111010 >"
b110010101011 j"
b1011100010 v"
#236
b10 >"
b101000011000 j"
b111111001001 v"
#237
b111111111110 "
b11111111110 .
b1111100111001010 ;
b1111110001000101 K
b10100 [
b1101 k
b11101 >"
b101000011110 j"
b110000100100 v"
#238
b10 >"
b101100000111 j"
b101000110110 v"
#239
b100000000010 "
b111111111110 .
b1111101100110101 ;
b1111110110110101 K
b1110 [
b1111 k
b11111 >"
b1100001011 j"
b111001011001 v"
#240
b1111111111110011 >"
b11111111111 j"
b1011010110 v"
#241
b10 "
b100000000010 .
b1111101111010000 ;
b1111111010111010 K
b11000 [
b10000 k
b10010 >"
b10110110111 j"
b10010011101 v"
#242
b1111111111111100 >"
b1010011 j"
b1011110111 v"
#243
b11111111110 "
b10 .
b1111111001010010 ;
b111001010 K
b10001 [
b1111 k
b10011 >"
b110011100111 j"
b1001110 v"
#244
b1111111111011011 >"
b101011010010 j"
b111111010110 v"
#245
b111111111110 "
b11111111110 .
b1111111111111110 ;
b1010110001 K
b1111 [
b1100 k
b1111111111100011 >"
b101000100000 j"
b110011010001 v"
#246
b1111111111101111 >"
b101010001010 j"
b101000000001 v"
#247
b100000000010 "
b111111111110 .
b111101010 ;
b10101100101 K
b1111111111111111 [
b1001 k
b1111111111110110 >"
#248
b1111111111111100 >"
b1101110100 j"
b111001010000 v"
#249
b10 "
b100000000010 .
b1111001110 ;
b10111110100 K
b1111111111111000 [
b101 k
b1111101000100100 {
b1111110010100001 -"
1="
0h"
1i"
b11111111111 j"
b1011011111 v"
#250
0="
b1111111111110001 >"
b1111111111111 N"
1^"
b11 _"
1e"
b11 f"
0i"
b10100100111 j"
b10001111110 v"
#251
b11111111110 "
b10 .
b10100101011 ;
b11100000100 K
b1111111111100110 [
b1 k
b1111111111100111 >"
b110010100010 j"
b1011010100 v"
#252
b11111 >"
b101000110110 j"
b111111011001 v"
#253
b111111111110 "
b11111111110 .
b11000011101 ;
b11101110111 K
b1111111111101011 [
b1111111111111101 k
b1011 >"
b101001010101 j"
b110001001101 v"
#254
b1111111111101001 >"
b101000110010 j"
b101000111000 v"
#255
b11111111110 "
b10 .
b11011000010 ;
b100010000111 K
b1111111111101001 [
b1111111111111001 k
b1111 >"
b1110100011 j"
b111001010101 v"
#256
b1111111111111110 >"
b11111111111 j"
b1011001011 v"
#257
b111111111110 "
b11111111110 .
b11100010001 ;
b100010110101 K
b1111111111101101 [
b1111111111110110 k
b1111111111100011 >"
b10111001001 j"
b10010100100 v"
#258
b10 >"
b101100100 j"
b1010000101 v"
#259
b100000000010 "
b111111111110 .
b11101100000 ;
b100010011110 K
b1111111111100100 [
b1111111111110100 k
b1111111111101011 >"
b10110101011 j"
b110110101000 v"
#260
b100010 >"
b11111111111 j"
b111010101110 v"
#261
b10 "
b100000000010 .
b11101000011 ;
b100010110001 K
b1111111111100110 [
b1111111111110010 k
b11010 >"
b10101101000 j"
b10010000001 v"
#262
b10000 >"
b1111100 j"
b1110110100 v"
