.Xil/Vivado-566-LiPtPDesktop/hw_ila_data_1/zip_work/waveform.vcd
$date
        2025-Dec-23 17:23:42
$end
$version
        Vivado v2024.2 (64-bit)
$end
$timescale
        1ps
$end
$scope module dut $end
$var reg 12 " tsm_I_1 [11:0] $end
$var reg 12 . tsm_Q_1 [11:0] $end
$var reg 12 : tsm_I [11:0] $end
$var reg 12 F tsm_Q [11:0] $end
$var reg 12 R rev_I [11:0] $end
$var reg 12 ^ rev_Q [11:0] $end
$var reg 1 j rev_valid_1 $end
$var reg 1 k rev_valid_2 $end
$var reg 1 l rev_valid_3 $end
$var reg 1 m rev_valid $end
$var reg 1 n _TRIGGER $end
$var reg 1 o _WINDOW $end
$var reg 1 p _GAP $end
$upscope $end
$enddefinitions $end
#0
$dumpvars
b111111111110 "
b11111111110 .
b111111111110 :
b11111111110 F
b10101000011 R
b10001000001 ^
1j
1k
1l
1m
0n
1o
0p
$end
#1
b1011111 R
b1010101000 ^
#2
b100000000010 "
b111111111110 .
b100000000010 :
b111111111110 F
b110101011100 R
b111110110010 ^
#3
b10 "
b100000000010 .
b10 :
b100000000010 F
b101001100100 R
b110001010110 ^
#4
b100111001101 R
b101011100000 ^
#5
b11111111110 "
b10 .
b11111111110 :
b10 F
b101100110000 R
b111010110101 ^
#6
b101111000010 R
b101011000 ^
#7
b111111111110 "
b11111111110 .
b111111111110 :
b11111111110 F
b101010011100 R
b110110010000 ^
#8
b101100110110 R
b101010001110 ^
#9
b100000000010 "
b111111111110 .
b100000000010 :
b111111111110 F
b1011101001 R
b111010110011 ^
#10
b11111111111 R
b1011011001 ^
#11
b10 "
b100000000010 .
b10 :
b100000000010 F
b10101001011 R
b10001011011 ^
#12
b1001100 R
b1001111100 ^
#13
b11111111110 "
b10 .
b11111111110 :
b10 F
b110100111010 R
b1011100 ^
#14
b101100111001 R
b111111011011 ^
#15
b111111111110 "
b11111111110 .
b111111111110 :
b11111111110 F
b101001001010 R
b110101000111 ^
#16
b101101010100 R
b101011000011 ^
#17
b100000000010 "
b111111111110 .
b100000000010 :
b111111111110 F
b1001111111 R
b111101001101 ^
#18
b10 "
b100000000010 .
b10 :
b100000000010 F
b10111001100 R
b10101000010 ^
#19
b101010001 R
b1110001010 ^
#20
b100000000010 "
b111111111110 .
b100000000010 :
b111111111110 F
b110011111000 R
b111111011001 ^
#21
b101100010000 R
b111111001000 ^
#22
b10 "
b100000000010 .
b10 :
b100000000010 F
b101001010100 R
b110101011001 ^
#23
b101101010000 R
b101011011001 ^
#24
b11111111110 "
b10 .
b11111111110 :
b10 F
b1011111100 R
b111010100111 ^
#25
b11111111111 R
b1010111110 ^
#26
b111111111110 "
b11111111110 .
b111111111110 :
b11111111110 F
b10100101010 R
b10001100010 ^
#27
b1000100 R
b1010010111 ^
#28
b100000000010 "
b111111111110 .
b100000000010 :
b111111111110 F
b110101000000 R
b111110 ^
#29
b101100110101 R
b111111100001 ^
#30
b10 "
b100000000010 .
b10 :
b100000000010 F
b101001011110 R
b110101001010 ^
#31
b101101001111 R
b101010101111 ^
#32
b11111111110 "
b10 .
b11111111110 :
b10 F
b1001100101 R
b111101000110 ^
#33
b111111111110 "
b11111111110 .
b111111111110 :
b11111111110 F
b10111011001 R
b10101011000 ^
#34
b1001100111 R
b1100011111 ^
#35
b100000000010 "
b111111111110 .
b100000000010 :
b111111111110 F
b10010101110 R
b110110111010 ^
#36
b11111111111 R
b111100100011 ^
#37
b10 "
b100000000010 .
b10 :
b100000000010 F
b10100000010 R
b10000101100 ^
#38
b10000011 R
b1101010010 ^
#39
b11111111110 "
b10 .
b11111111110 :
b10 F
b110101001111 R
b11111 ^
#40
b101100000111 R
b111111011001 ^
#41
b111111111110 "
b11111111110 .
b111111111110 :
b11111111110 F
b101001001110 R
b110101100111 ^
#42
b101101101001 R
b101011010111 ^
#43
b100000000010 "
b111111111110 .
b100000000010 :
b111111111110 F
b1011101110 R
b111010100101 ^
#44
b11111111111 R
b1011011010 ^
#45
b10 "
b100000000010 .
b10 :
b100000000010 F
b10100111001 R
b10001001101 ^
#46
b1000000 R
b1010110010 ^
#47
b11111111110 "
b10 .
b11111111110 :
b10 F
b110101101111 R
b111110111001 ^
#48
b111111111110 "
b11111111110 .
b111111111110 :
b11111111110 F
b101000111111 R
b110001011110 ^
#49
b101011110111 R
b101011010010 ^
#50
b11111111110 "
b10 .
b11111111110 :
b10 F
b1100010110 R
b111010111110 ^
#51
b11111111111 R
b1011011111 ^
#52
b111111111110 "
b11111111110 .
b111111111110 :
b11111111110 F
b10100110101 R
b10000111011 ^
#53
b1000111 R
b1010011010 ^
#54
b100000000010 "
b111111111110 .
b100000000010 :
b111111111110 F
b110101000110 R
b1010110 ^
#55
b101100100100 R
b111111011011 ^
#56
b10 "
b100000000010 .
b10 :
b100000000010 F
b101001001011 R
b110101000101 ^
#57
b101101110101 R
b101011101001 ^
#58
b11111111110 "
b10 .
b11111111110 :
b10 F
b1011101010 R
b111010010111 ^
#59
b11111111111 R
b1011011011 ^
#60
b111111111110 "
b11111111110 .
b111111111110 :
b11111111110 F
b10101000000 R
b10001001000 ^
#61
b1100100 R
b1010101100 ^
#62
b100000000010 "
b111111111110 .
b100000000010 :
b111111111110 F
b110101011010 R
b111110110010 ^
#63
b10 "
b100000000010 .
b10 :
b100000000010 F
b101001101101 R
b110001100011 ^
#64
b100111010010 R
b101011010101 ^
#65
b11111111110 "
b10 .
b11111111110 :
b10 F
b101100011110 R
b111010011000 ^
#66
b101111001101 R
b101111100 ^
#67
b111111111110 "
b11111111110 .
b111111111110 :
b11111111110 F
b101010011111 R
b110110000111 ^
#68
b101100011001 R
b101010001000 ^
#69
b100000000010 "
b111111111110 .
b100000000010 :
b111111111110 F
b1011110101 R
b111010100010 ^
#70
b11111111111 R
b1011101111 ^
#71
b10 "
b100000000010 .
b10 :
b100000000010 F
b10101001100 R
b10000100100 ^
#72
b111110 R
b1011000101 ^
#73
b11111111110 "
b10 .
b11111111110 :
b10 F
b110101100010 R
b1010011 ^
#74
b101100111110 R
b111111010001 ^
#75
b111111111110 "
b11111111110 .
b111111111110 :
b11111111110 F
b101000111111 R
b110101010011 ^
#76
b101110001101 R
b101010110000 ^
#77
b100000000010 "
b111111111110 .
b100000000010 :
b111111111110 F
b1001010110 R
b111100110001 ^
#78
b10 "
b100000000010 .
b10 :
b100000000010 F
b10110111111 R
b10101101010 ^
#79
b101110111 R
b1110010110 ^
#80
b100000000010 "
b111111111110 .
b100000000010 :
b111111111110 F
b110011100001 R
b111111101000 ^
#81
b101100101000 R
b111110111110 ^
#82
b10 "
b100000000010 .
b10 :
b100000000010 F
b101001100101 R
b110101011101 ^
#83
b101101001001 R
b101011011001 ^
#84
b11111111110 "
b10 .
b11111111110 :
b10 F
b1011101011 R
b111010010000 ^
#85
b11111111111 R
b1011000100 ^
#86
b111111111110 "
b11111111110 .
b111111111110 :
b11111111110 F
b10100100011 R
b10001000111 ^
#87
b1011001 R
b1010010001 ^
#88
b100000000010 "
b111111111110 .
b100000000010 :
b111111111110 F
b110101100011 R
b1010001 ^
#89
b101100111101 R
b111111011001 ^
#90
b10 "
b100000000010 .
b10 :
b100000000010 F
b101001000001 R
b110100111110 ^
#91
b101101011010 R
b101011001111 ^
#92
b11111111110 "
b10 .
b11111111110 :
b10 F
b1001111001 R
b111100111111 ^
#93
b111111111110 "
b11111111110 .
b111111111110 :
b11111111110 F
b10111010000 R
b10101001101 ^
#94
b1001110101 R
b1100111100 ^
#95
b100000000010 "
b111111111110 .
b100000000010 :
b111111111110 F
b10010100001 R
b110110110110 ^
#96
b11111111111 R
b111100000111 ^
#97
b10 "
b100000000010 .
b10 :
b100000000010 F
b10100010101 R
b10001011000 ^
#98
b10000000 R
b1100110100 ^
#99
b11111111110 "
b10 .
b11111111110 :
b10 F
b110101000111 R
b1111 ^
#100
b101100111011 R
b111111001111 ^
#101
b111111111110 "
b11111111110 .
b111111111110 :
b11111111110 F
b101001001111 R
b110101000011 ^
#102
b101101001001 R
b101011010001 ^
#103
b100000000010 "
b111111111110 .
b100000000010 :
b111111111110 F
b1100000100 R
b111010011100 ^
#104
b11111111111 R
b1011011001 ^
#105
b10 "
b100000000010 .
b10 :
b100000000010 F
b10100101000 R
b10001000000 ^
#106
b1011110 R
b1010101101 ^
#107
b11111111110 "
b10 .
b11111111110 :
b10 F
b110110000010 R
b111111001011 ^
#108
b111111111110 "
b11111111110 .
b111111111110 :
b11111111110 F
b101001000001 R
b110000111111 ^
#109
b101011011111 R
b101011100100 ^
#110
b11111111110 "
b10 .
b11111111110 :
b10 F
b1100100011 R
b111011011010 ^
#111
b11111111111 R
b1010111011 ^
#112
b111111111110 "
b11111111110 .
b111111111110 :
b11111111110 F
b10100101010 R
b10001001010 ^
#113
b1101101 R
b1010010001 ^
#114
b100000000010 "
b111111111110 .
b100000000010 :
b111111111110 F
b110101000100 R
b1000100 ^
#115
b101100111001 R
b111111100110 ^
#116
b10 "
b100000000010 .
b10 :
b100000000010 F
b101001010001 R
b110100110101 ^
#117
b101101001111 R
b101011011000 ^
#118
b11111111110 "
b10 .
b11111111110 :
b10 F
b1100000011 R
b111010010011 ^
#119
b11111111111 R
b1011101001 ^
#120
b111111111110 "
b11111111110 .
b111111111110 :
b11111111110 F
b10100110100 R
b10000110101 ^
#121
b1110000 R
b1010010110 ^
#122
b100000000010 "
b111111111110 .
b100000000010 :
b111111111110 F
b110101110010 R
b111111001100 ^
#123
b10 "
b100000000010 .
b10 :
b100000000010 F
b101001100101 R
b110001011001 ^
#124
b100111000100 R
b101010111001 ^
#125
b11111111110 "
b10 .
b11111111110 :
b10 F
b101101100101 R
b111011000100 ^
#126
b101110101000 R
b101001111 ^
#127
b111111111110 "
b11111111110 .
b111111111110 :
b11111111110 F
b101010101000 R
b110110001011 ^
#128
b101100110001 R
b101001101011 ^
#129
b100000000010 "
b111111111110 .
b100000000010 :
b111111111110 F
b1011111001 R
b111010110000 ^
#130
b11111111111 R
b1011010010 ^
#131
b10 "
b100000000010 .
b10 :
b100000000010 F
b10101000110 R
b10001001101 ^
#132
b1001101 R
b1010011001 ^
#133
b11111111110 "
b10 .
b11111111110 :
b10 F
b110100111010 R
b1000000 ^
#134
b101101000011 R
b111111100100 ^
#135
b111111111110 "
b11111111110 .
b111111111110 :
b11111111110 F
b101001000101 R
b110101011001 ^
#136
b101101010000 R
b101010101110 ^
#137
b100000000010 "
b111111111110 .
b100000000010 :
b111111111110 F
b1001111010 R
b111101000100 ^
#138
b10 "
b100000000010 .
b10 :
b100000000010 F
b10111001111 R
b10101100000 ^
#139
b101001010 R
b1101111100 ^
#140
b100000000010 "
b111111111110 .
b100000000010 :
b111111111110 F
b110100000100 R
b111111101010 ^
#141
b101100011111 R
b111111010101 ^
#142
b10 "
b100000000010 .
b10 :
b100000000010 F
b101001011100 R
b110101010010 ^
#143
b101101101100 R
b101011011000 ^
#144
b11111111110 "
b10 .
b11111111110 :
b10 F
b1100010110 R
b111010110101 ^
#145
b11111111111 R
b1010111101 ^
#146
b111111111110 "
b11111111110 .
b111111111110 :
b11111111110 F
b10100111110 R
b10001011010 ^
#147
b1100001 R
b1010010101 ^
#148
b100000000010 "
b111111111110 .
b100000000010 :
b111111111110 F
b110100110101 R
b1000001 ^
#149
b101101001101 R
b111111011011 ^
#150
b10 "
b100000000010 .
b10 :
b100000000010 F
b101001011100 R
b110101001011 ^
#151
b101101000101 R
b101011010001 ^
#152
b11111111110 "
b10 .
b11111111110 :
b10 F
b1010010001 R
b111100100111 ^
#153
b111111111110 "
b11111111110 .
b111111111110 :
b11111111110 F
b10111000101 R
b10101100011 ^
#154
b1001100011 R
b1100110011 ^
#155
b100000000010 "
b111111111110 .
b100000000010 :
b111111111110 F
b10010101011 R
b110110100110 ^
#156
b11111111111 R
b111100101000 ^
#157
b10 "
b100000000010 .
b10 :
b100000000010 F
b10100001111 R
b10001001010 ^
#158
b10000001 R
b1100101100 ^
#159
b11111111110 "
b10 .
b11111111110 :
b10 F
b110101011001 R
b100110 ^
#160
b101100101011 R
b111111110100 ^
#161
b111111111110 "
b11111111110 .
b111111111110 :
b11111111110 F
b101001010001 R
b110101000011 ^
#162
b101101010010 R
b101011011110 ^
#163
b100000000010 "
b111111111110 .
b100000000010 :
b111111111110 F
b1100000110 R
b111010100011 ^
#164
b11111111111 R
b1010111100 ^
#165
b10 "
b100000000010 .
b10 :
b100000000010 F
b10100110110 R
b10001000111 ^
#166
b1010111 R
b1010101011 ^
#167
b11111111110 "
b10 .
b11111111110 :
b10 F
b110101110001 R
b111110101100 ^
#168
b111111111110 "
b11111111110 .
b111111111110 :
b11111111110 F
b101000111000 R
b110001010011 ^
#169
b101011110100 R
b101011011010 ^
#170
b11111111110 "
b10 .
b11111111110 :
b10 F
b1100010010 R
b111011010001 ^
#171
b11111111111 R
b1011001000 ^
#172
b111111111110 "
b11111111110 .
b111111111110 :
b11111111110 F
b10100110110 R
b10001001101 ^
#173
b1001101 R
b1010011011 ^
#174
b100000000010 "
b111111111110 .
b100000000010 :
b111111111110 F
b110101010000 R
b1001010 ^
#175
b101101000001 R
b100 ^
#176
b10 "
b100000000010 .
b10 :
b100000000010 F
b101001101010 R
b110100111100 ^
#177
b101101011011 R
b101011001101 ^
#178
b11111111110 "
b10 .
b11111111110 :
b10 F
b1011111011 R
b111010110010 ^
#179
b11111111111 R
b1011010000 ^
#180
b111111111110 "
b11111111110 .
b111111111110 :
b11111111110 F
b10100101111 R
b10001001110 ^
#181
b1111000 R
b1010100100 ^
#182
b100000000010 "
b111111111110 .
b100000000010 :
b111111111110 F
b110101010101 R
b111111000000 ^
#183
b10 "
b100000000010 .
b10 :
b100000000010 F
b101001101110 R
b110001100000 ^
#184
b100111101110 R
b101011001111 ^
#185
b11111111110 "
b10 .
b11111111110 :
b10 F
b101100011111 R
b111010111011 ^
#186
b101111010111 R
b101011011 ^
#187
b111111111110 "
b11111111110 .
b111111111110 :
b11111111110 F
b101010010111 R
b110110000101 ^
#188
b101100101111 R
b101010001111 ^
#189
b100000000010 "
b111111111110 .
b100000000010 :
b111111111110 F
b1011111111 R
b111010010000 ^
#190
b11111111111 R
b1011110000 ^
#191
b10 "
b100000000010 .
b10 :
b100000000010 F
b10101010011 R
b10001011000 ^
#192
b1000101 R
b1010001010 ^
#193
b11111111110 "
b10 .
b11111111110 :
b10 F
b110100111010 R
b1001101 ^
#194
b101101000110 R
b111111011011 ^
#195
b111111111110 "
b11111111110 .
b111111111110 :
b11111111110 F
b101001001110 R
b110101001010 ^
#196
b101101011001 R
b101011001101 ^
#197
b100000000010 "
b111111111110 .
b100000000010 :
b111111111110 F
b1001110001 R
b111100111100 ^
#198
b10 "
b100000000010 .
b10 :
b100000000010 F
b10110111100 R
b10101101001 ^
#199
b101100000 R
b1101111100 ^
#200
b100000000010 "
b111111111110 .
b100000000010 :
b111111111110 F
b110011110100 R
b111111011010 ^
#201
b101100100001 R
#202
b10 "
b100000000010 .
b10 :
b100000000010 F
b101001100010 R
b110101001011 ^
#203
b101100111101 R
b101011100110 ^
#204
b11111111110 "
b10 .
b11111111110 :
b10 F
b1100001011 R
b111010100100 ^
#205
b11111111111 R
b1011011011 ^
#206
b111111111110 "
b11111111110 .
b111111111110 :
b11111111110 F
b10100101000 R
b10001001111 ^
#207
b1001110 R
b1010011010 ^
#208
b100000000010 "
b111111111110 .
b100000000010 :
b111111111110 F
b110101000010 R
b111111 ^
#209
b101100100111 R
b111111100000 ^
#210
b10 "
b100000000010 .
b10 :
b100000000010 F
b101001011001 R
b110101001101 ^
#211
b101101000110 R
b101011010000 ^
#212
b11111111110 "
b10 .
b11111111110 :
b10 F
b1010000101 R
b111101000001 ^
#213
b111111111110 "
b11111111110 .
b111111111110 :
b11111111110 F
b10111010001 R
b10101011100 ^
#214
b1001101110 R
b1100111010 ^
#215
b100000000010 "
b111111111110 .
b100000000010 :
b111111111110 F
b10010101010 R
b110110011110 ^
#216
b11111111111 R
b111100100010 ^
#217
b10 "
b100000000010 .
b10 :
b100000000010 F
b10100011100 R
b10001001000 ^
#218
b10001011 R
b1101000111 ^
#219
b11111111110 "
b10 .
b11111111110 :
b10 F
b110101001000 R
b100111 ^
#220
b101100100010 R
b111111110011 ^
#221
b111111111110 "
b11111111110 .
b111111111110 :
b11111111110 F
b101001011100 R
b110100111100 ^
#222
b101101100000 R
b101011001111 ^
#223
b100000000010 "
b111111111110 .
b100000000010 :
b111111111110 F
b1100011011 R
b111010100011 ^
#224
b11111111111 R
b1011001100 ^
#225
b10 "
b100000000010 .
b10 :
b100000000010 F
b10100101111 R
b10000111110 ^
#226
b1010101 R
b1011000010 ^
#227
b11111111110 "
b10 .
b11111111110 :
b10 F
b110101110110 R
b111110101010 ^
#228
b111111111110 "
b11111111110 .
b111111111110 :
b11111111110 F
b101001000101 R
b110001001101 ^
#229
b101011101111 R
b101011110000 ^
#230
b11111111110 "
b10 .
b11111111110 :
b10 F
b1100010010 R
b111010110110 ^
#231
b11111111111 R
b1011001111 ^
#232
b111111111110 "
b11111111110 .
b111111111110 :
b11111111110 F
b10101000110 R
b10001100000 ^
#233
b1010101 R
b1010010101 ^
#234
b100000000010 "
b111111111110 .
b100000000010 :
b111111111110 F
b110100100011 R
b1000001 ^
#235
b101100101000 R
b111111111100 ^
#236
b10 "
b100000000010 .
b10 :
b100000000010 F
b101001100011 R
b110101000001 ^
#237
b101101001000 R
b101011010001 ^
#238
b11111111110 "
b10 .
b11111111110 :
b10 F
b1100010100 R
b111010110111 ^
#239
b11111111111 R
b1011000011 ^
#240
b111111111110 "
b11111111110 .
b111111111110 :
b11111111110 F
b10100100010 R
b10001000101 ^
#241
b10001001 R
b1010100110 ^
#242
b100000000010 "
b111111111110 .
b100000000010 :
b111111111110 F
b110101101101 R
b111110110110 ^
#243
b10 "
b100000000010 .
b10 :
b100000000010 F
b101001010010 R
b110001010001 ^
#244
b100111101100 R
b101011011100 ^
#245
b11111111110 "
b10 .
b11111111110 :
b10 F
b101100101101 R
b111010110101 ^
#246
b101110111000 R
b101011100 ^
#247
b111111111110 "
b11111111110 .
b111111111110 :
b11111111110 F
b101010101100 R
b110110001001 ^
#248
b101100101101 R
b101010100111 ^
#249
b100000000010 "
b111111111110 .
b100000000010 :
b111111111110 F
b1011011010 R
b111010100011 ^
#250
b11111111111 R
b1011010111 ^
#251
b10 "
b100000000010 .
b10 :
b100000000010 F
b10101010010 R
b10001010101 ^
#252
b1000101 R
b1010010110 ^
#253
b11111111110 "
b10 .
b11111111110 :
b10 F
b110101001010 R
b111111 ^
#254
b101101001011 R
b111111110100 ^
#255
b111111111110 "
b11111111110 .
b111111111110 :
b11111111110 F
b101000111001 R
b110100111101 ^
#256
b101101101011 R
b101010111101 ^
#257
b100000000010 "
b111111111110 .
b100000000010 :
b111111111110 F
b1001101010 R
b111101010001 ^
#258
b10 "
b100000000010 .
b10 :
b100000000010 F
b10110101100 R
b10101011010 ^
#259
b101101100 R
b1110000011 ^
#260
b100000000010 "
b111111111110 .
b100000000010 :
b111111111110 F
b110100000010 R
b111111111001 ^
#261
b101100011100 R
b111111001001 ^
#262
b10 "
b100000000010 .
b10 :
b100000000010 F
b101001001101 R
b110101001100 ^
#263
b101101101111 R
b101011101100 ^
#264
b11111111110 "
b10 .
b11111111110 :
b10 F
b1011110000 R
b111010001110 ^
#265
b11111111111 R
b1010111011 ^
#266
b111111111110 "
b11111111110 .
b111111111110 :
b11111111110 F
b10101010000 R
b10001011110 ^
#267
b111100 R
b1010001101 ^
#268
b100000000010 "
b111111111110 .
b100000000010 :
b111111111110 F
b110101000000 R
b1000000 ^
#269
b101101100100 R
b111111011100 ^
#270
b10 "
b100000000010 .
b10 :
b100000000010 F
b101001001010 R
b110101001110 ^
#271
b101101011010 R
b101010111110 ^
#272
b11111111110 "
b10 .
b11111111110 :
b10 F
b1010000100 R
b111101000010 ^
#273
b111111111110 "
b11111111110 .
b111111111110 :
b11111111110 F
b10111001110 R
b10101101001 ^
#274
b1001011110 R
b1100100110 ^
#275
b100000000010 "
b111111111110 .
b100000000010 :
b111111111110 F
b10011001111 R
b110110100000 ^
#276
b11111111111 R
b111100110101 ^
#277
b10 "
b100000000010 .
b10 :
b100000000010 F
b10011111110 R
b10000110101 ^
#278
b1111110 R
b1100110010 ^
#279
b11111111110 "
b10 .
b11111111110 :
b10 F
b110101001010 R
b1000000 ^
#280
b101100011001 R
b111110101110 ^
#281
b111111111110 "
b11111111110 .
b111111111110 :
b11111111110 F
b101001001001 R
b110101001111 ^
#282
b101101011001 R
b101011111011 ^
#283
b100000000010 "
b111111111110 .
b100000000010 :
b111111111110 F
b1100001110 R
b111010000110 ^
#284
b11111111111 R
b1011001110 ^
#285
b10 "
b100000000010 .
b10 :
b100000000010 F
b10100111001 R
b10001001011 ^
#286
b1001111 R
b1010010011 ^
#287
b11111111110 "
b10 .
b11111111110 :
b10 F
b110101110100 R
b111110111110 ^
#288
b111111111110 "
b11111111110 .
b111111111110 :
b11111111110 F
b101001001101 R
b110001101001 ^
#289
b101011101001 R
b101011011001 ^
#290
b11111111110 "
b10 .
b11111111110 :
b10 F
b1100010011 R
b111010111000 ^
#291
b11111111111 R
b1011011000 ^
#292
b111111111110 "
b11111111110 .
b111111111110 :
b11111111110 F
b10100110101 R
b10000111011 ^
#293
b1000101 R
b1010011010 ^
#294
b100000000010 "
b111111111110 .
b100000000010 :
b111111111110 F
b110101010001 R
b1100000 ^
#295
b101100111100 R
b111111000011 ^
#296
b10 "
b100000000010 .
b10 :
b100000000010 F
b101000111101 R
b110100100001 ^
#297
b101101110100 R
b101011101111 ^
#298
b11111111110 "
b10 .
b11111111110 :
b10 F
b1011111001 R
b111010010110 ^
#299
b11111111111 R
b1011010100 ^
#300
b111111111110 "
b11111111110 .
b111111111110 :
b11111111110 F
b10101001110 R
b10001001011 ^
#301
b1101101 R
b1010011010 ^
#302
b100000000010 "
b111111111110 .
b100000000010 :
b111111111110 F
b110101011010 R
b111110110011 ^
#303
b10 "
b100000000010 .
b10 :
b100000000010 F
b101001100011 R
b110001110110 ^
#304
b100111100100 R
b101011000010 ^
#305
b11111111110 "
b10 .
b11111111110 :
b10 F
b101100011000 R
b111011001001 ^
#306
b101111011001 R
b101101100 ^
#307
b111111111110 "
b11111111110 .
b111111111110 :
b11111111110 F
b101010000011 R
b110110001100 ^
#308
b101100010111 R
b101001111011 ^
#309
b100000000010 "
b111111111110 .
b100000000010 :
b111111111110 F
b1100010001 R
b111010101011 ^
#310
b11111111111 R
b1011010110 ^
#311
b10 "
b100000000010 .
b10 :
b100000000010 F
b10101000000 R
b10000111010 ^
#312
b1000111 R
b1010010000 ^
#313
b11111111110 "
b10 .
b11111111110 :
b10 F
b110101000011 R
b1010111 ^
#314
b101100100001 R
b111111011100 ^
#315
b111111111110 "
b11111111110 .
b111111111110 :
b11111111110 F
b101001010011 R
b110101010000 ^
#316
b101101101001 R
b101010111001 ^
#317
b100000000010 "
b111111111110 .
b100000000010 :
b111111111110 F
b1001011101 R
b111101010100 ^
#318
b10 "
b100000000010 .
b10 :
b100000000010 F
b10111010010 R
b10101011101 ^
#319
b101001111 R
b1110000011 ^
#320
b100000000010 "
b111111111110 .
b100000000010 :
b111111111110 F
b110100000001 R
b111111011000 ^
#321
b101100001101 R
b111111001100 ^
#322
b10 "
b100000000010 .
b10 :
b100000000010 F
b101001101001 R
b110101101101 ^
#323
b101101101001 R
b101011010001 ^
#324
b11111111110 "
b10 .
b11111111110 :
b10 F
b1100000110 R
b111010101001 ^
#325
b11111111111 R
b1010111101 ^
#326
b111111111110 "
b11111111110 .
b111111111110 :
b11111111110 F
b10100101010 R
b10000111011 ^
#327
b1000110 R
b1010100011 ^
#328
b100000000010 "
b111111111110 .
b100000000010 :
b111111111110 F
b110101100000 R
b111100 ^
#329
b101100110001 R
b111111011010 ^
#330
b10 "
b100000000010 .
b10 :
b100000000010 F
b101001001101 R
b110101000101 ^
#331
b101101010011 R
b101010111110 ^
#332
b11111111110 "
b10 .
b11111111110 :
b10 F
b1001101011 R
b111101001101 ^
#333
b111111111110 "
b11111111110 .
b111111111110 :
b11111111110 F
b10111001111 R
b10101001110 ^
#334
b1001011000 R
b1100111010 ^
#335
b100000000010 "
b111111111110 .
b100000000010 :
b111111111110 F
b10011000000 R
b110110101111 ^
#336
b11111111111 R
b111100011011 ^
#337
b10 "
b100000000010 .
b10 :
b100000000010 F
b10100011111 R
b10001010010 ^
#338
b1111011 R
b1100101011 ^
#339
b11111111110 "
b10 .
b11111111110 :
b10 F
b110101001100 R
b100111 ^
#340
b101101000110 R
b111111100011 ^
#341
b111111111110 "
b11111111110 .
b111111111110 :
b11111111110 F
b101001000010 R
b110101000000 ^
#342
b101101011011 R
b101011011100 ^
#343
b100000000010 "
b111111111110 .
b100000000010 :
b111111111110 F
b1100010010 R
b111010001111 ^
#344
b11111111111 R
b1011001101 ^
#345
b10 "
b100000000010 .
b10 :
b100000000010 F
b10100110110 R
b10001010011 ^
#346
b1010101 R
b1010101101 ^
#347
b11111111110 "
b10 .
b11111111110 :
b10 F
b110101110100 R
b111111000010 ^
#348
b111111111110 "
b11111111110 .
b111111111110 :
b11111111110 F
b101000101000 R
b110001100101 ^
#349
b101011110111 R
b101011010001 ^
#350
b100000000010 "
b111111111110 .
b100000000010 :
b111111111110 F
b1100000101 R
b111011000000 ^
#351
b11111111111 R
b1011100010 ^
#352
b10 "
b100000000010 .
b10 :
b100000000010 F
b10101010001 R
b10000110011 ^
#353
b111111 R
b1010011000 ^
#354
b11111111110 "
b10 .
b11111111110 :
b10 F
b110101010101 R
b1001001 ^
#355
b101101010100 R
b111111100101 ^
#356
b111111111110 "
b11111111110 .
b111111111110 :
b11111111110 F
b101001001111 R
b110101000010 ^
#357
b101101100010 R
b101011010010 ^
#358
b100000000010 "
b111111111110 .
b100000000010 :
b111111111110 F
b1100001010 R
b111010010111 ^
#359
b11111111111 R
b1011101010 ^
#360
b10 "
b100000000010 .
b10 :
b100000000010 F
b10100111111 R
b10001010011 ^
#361
b1110011 R
b1010101001 ^
#362
b11111111110 "
b10 .
b11111111110 :
b10 F
b110101001100 R
b111111000100 ^
#363
b111111111110 "
b11111111110 .
b111111111110 :
b11111111110 F
b101001101010 R
b110001101010 ^
#364
b100111100000 R
b101011000000 ^
#365
b100000000010 "
b111111111110 .
b100000000010 :
b111111111110 F
b101100100010 R
b111010110100 ^
#366
b101111001100 R
b101011001 ^
#367
b10 "
b100000000010 .
b10 :
b100000000010 F
b101010111000 R
b110110001100 ^
#368
b101100101101 R
b101001111110 ^
#369
b11111111110 "
b10 .
b11111111110 :
b10 F
b1011110101 R
b111010011100 ^
#370
b11111111111 R
b1011101111 ^
#371
b111111111110 "
b11111111110 .
b111111111110 :
b11111111110 F
b10100110110 R
b10001011000 ^
#372
b111100 R
b1010011111 ^
#373
b100000000010 "
b111111111110 .
b100000000010 :
b111111111110 F
b110101011101 R
b1011001 ^
#374
b101100110001 R
b111111010000 ^
#375
b10 "
b100000000010 .
b10 :
b100000000010 F
b101001001101 R
b110101001000 ^
#376
b101101101010 R
b101010110010 ^
#377
b11111111110 "
b10 .
b11111111110 :
b10 F
b1001101100 R
b111101010100 ^
#378
b111111111110 "
b11111111110 .
b111111111110 :
b11111111110 F
b10111001100 R
b10101001100 ^
#379
b101100101 R
b1110001011 ^
#380
b11111111110 "
b10 .
b11111111110 :
b10 F
b110011111110 R
b111111100110 ^
#381
b101100011100 R
b111111001010 ^
#382
b111111111110 "
b11111111110 .
b111111111110 :
b11111111110 F
b101001100101 R
b110101011100 ^
#383
b101101001110 R
b101011101011 ^
#384
b100000000010 "
b111111111110 .
b100000000010 :
b111111111110 F
b1100000011 R
b111010001101 ^
#385
b11111111111 R
b1011100101 ^
#386
b10 "
b100000000010 .
b10 :
b100000000010 F
b10100111010 R
b10001100110 ^
#387
b101111 R
b1010010101 ^
#388
b11111111110 "
b10 .
b11111111110 :
b10 F
b110101001111 R
b1011001 ^
#389
b101101011010 R
b111111010101 ^
#390
b111111111110 "
b11111111110 .
b111111111110 :
b11111111110 F
b101000110111 R
b110100111110 ^
#391
b101101100111 R
b101011010000 ^
#392
b100000000010 "
b111111111110 .
b100000000010 :
b111111111110 F
b1001111001 R
b111101000100 ^
#393
b10 "
b100000000010 .
b10 :
b100000000010 F
b10111000100 R
b10101011100 ^
#394
b101100010 R
b1110000010 ^
#395
b11111111110 "
b10 .
b11111111110 :
b10 F
b110011111011 R
b100 ^
#396
b101100001011 R
b111111000100 ^
#397
b111111111110 "
b11111111110 .
b111111111110 :
b11111111110 F
b101001101101 R
b110101100111 ^
#398
b101101110101 R
b101011011011 ^
#399
b100000000010 "
b111111111110 .
b100000000010 :
b111111111110 F
b1011110011 R
b111010011100 ^
#400
b11111111111 R
b1011100110 ^
#401
b10 "
b100000000010 .
b10 :
b100000000010 F
b10101000011 R
b10001110111 ^
#402
b1001010 R
b1001110010 ^
#403
b11111111110 "
b10 .
b11111111110 :
b10 F
b110101010110 R
b1000100 ^
#404
b101100111010 R
b111111101100 ^
#405
b111111111110 "
b11111111110 .
b111111111110 :
b11111111110 F
b101000110101 R
b110101001010 ^
#406
b101101011010 R
b101011000011 ^
#407
b100000000010 "
b111111111110 .
b100000000010 :
b111111111110 F
b1010100000 R
b111101000000 ^
#408
b10 "
b100000000010 .
b10 :
b100000000010 F
b10110111011 R
b10101010111 ^
#409
b101010011 R
b1110010001 ^
#410
b100000000010 "
b111111111110 .
b100000000010 :
b111111111110 F
b110100010101 R
b111111110110 ^
#411
b101100010001 R
b111111001100 ^
#412
b10 "
b100000000010 .
b10 :
b100000000010 F
b101001101101 R
b110101001100 ^
#413
b101101010111 R
b101011101000 ^
