implementation/BPSK.vcd
$date
        2025-Dec-23 15:58:40
$end
$version
        Vivado v2024.2 (64-bit)
$end
$timescale
        1ps
$end
$scope module dut $end
$var reg 12 " DAC_I [11:0] $end
$var reg 12 . DAC_Q [11:0] $end
$var reg 1 : tx_serial $end
$var reg 16 ; I_16M [15:0] $end
$var reg 16 K Q_16M [15:0] $end
$var reg 16 [ error_tdata [15:0] $end
$var reg 16 k feedback_tdata [15:0] $end
$var reg 16 { I_1M [15:0] $end
$var reg 16 -" Q_1M [15:0] $end
$var reg 1 =" clk_1M_out $end
$var reg 16 >" gardner_error [15:0] $end
$var reg 16 N" gardner_increment [15:0] $end
$var reg 1 ^" BPSK_raw $end
$var reg 2 _" QPSK_raw [1:0] $end
$var reg 1 a" SD_flag $end
$var reg 1 b" PD_flag $end
$var reg 1 c" BD_flag $end
$var reg 1 d" rx_data_tlast $end
$var reg 1 e" BPSK $end
$var reg 2 f" QPSK [1:0] $end
$var reg 1 h" rx_serial $end
$var reg 1 i" Rx_valid $end
$var reg 12 j" ADC_I [11:0] $end
$var reg 12 v" ADC_Q [11:0] $end
$var reg 1 $# _TRIGGER $end
$var reg 1 %# _WINDOW $end
$var reg 1 &# _GAP $end
$upscope $end
$enddefinitions $end
#0
$dumpvars
b10 "
b100000000010 .
0:
b1111101100111110 ;
b1111110000110101 K
b1010 [
b101 k
b1111101011010000 {
b1111110000010100 -"
0="
b0 >"
b10000000000000 N"
1^"
b11 _"
1a"
1b"
1c"
0d"
0e"
b0 f"
0h"
0i"
b1010100 j"
b1010100011 v"
0$#
1%#
0&#
$end
#1
b11111111110 "
b10 .
b1111101010110100 ;
b1111101111111000 K
b111 [
b110110101110 j"
b1010001 v"
#2
b1111111111111110 >"
#3
b111111111110 "
b11111111110 .
b1111101011001001 ;
b1111110001001010 K
b1000 [
b100 k
b101100010011 j"
b111111010111 v"
#4
b101110101001 j"
b110111011000 v"
#5
b100000000010 "
b111111111110 .
b1111101100001011 ;
b1111110000100000 K
b1011 [
b1101001010 j"
b111001101101 v"
#6
b11111111111 j"
b1000110000 v"
#7
b10 "
b100000000010 .
b1111101011100101 ;
b1111101111011000 K
b1101 [
b0 >"
b10101011111 j"
b10001011001 v"
#8
b1100110 j"
b1010010111 v"
#9
b11111111110 "
b10 .
b1111101011010111 ;
b1111110001110110 K
b1001 [
b1111111111111110 >"
b110110100111 j"
b101111 v"
#10
b101101000101 j"
b1001 v"
#11
b111111111110 "
b11111111110 .
b1111101011101101 ;
b1111110001100100 K
b1000 [
b0 >"
b100111100110 j"
b110101000100 v"
#12
b1111111111111111 >"
b101111000101 j"
b101001111010 v"
#13
b100000000010 "
b111111111110 .
b1111101100101101 ;
b1111110000101100 K
b1110 [
b1101010001 j"
b111010010000 v"
#14
b0 >"
b11111111111 j"
b1011000011 v"
#15
b10 "
b100000000010 .
b1111101100101100 ;
b1111110000110100 K
b1100 [
b10100111001 j"
b10000011111 v"
#16
b1 >"
b1011111 j"
b1010111000 v"
#17
b11111111110 "
b10 .
b1111101010101011 ;
b1111101111100111 K
b1000 [
b1111111111111110 >"
b110110110101 j"
b1010010 v"
#18
b1 >"
#19
b111111111110 "
b11111111110 .
b1111101011000111 ;
b1111110000111000 K
b0 >"
b101100011000 j"
b111110111101 v"
#20
b101110011101 j"
b110111101111 v"
#21
b11111111110 "
b10 .
b1111101100011000 ;
b1111110000010100 K
b1011 [
b1100101101 j"
b111001111101 v"
#22
b1 >"
b11111111111 j"
b1000100000 v"
#23
b111111111110 "
b11111111110 .
b1111101011111010 ;
b1111101111001000 K
b1100 [
b10101001100 j"
b10001100011 v"
#24
b100010101 j"
b1000110100 v"
#25
b100000000010 "
b111111111110 .
b1111101011110110 ;
b1111110001110000 K
b1000 [
b10010000101 j"
b110110110100 v"
#26
b11111111111 j"
b111011001110 v"
#27
b10 "
b100000000010 .
b1111101100000100 ;
b1111110001100010 K
b111 [
b0 >"
b10100110000 j"
b10000001101 v"
#28
b1111101 j"
b1100111011 v"
#29
b11111111110 "
b10 .
b1111101101000011 ;
b1111110000110001 K
b1100 [
b1111101010110010 {
b1111101111111011 -"
1="
b1 >"
b110110101001 j"
b11100 v"
#30
0="
b0 >"
b101101010001 j"
b111111111001 v"
#31
b111111111110 "
b11111111110 .
b1111101100110111 ;
b1111110000110110 K
b1011 [
b101000001010 j"
b110101000011 v"
#32
b101101010001 j"
b101010010110 v"
#33
b100000000010 "
b111111111110 .
b1111101010110010 ;
b1111101111101000 K
b111 [
b1111111111111111 >"
b1110110111 j"
b111001111110 v"
#34
b0 >"
#35
b10 "
b100000000010 .
b1111101010101100 ;
b1111110001000001 K
b1000 [
b1 >"
b11111111111 j"
b1010111111 v"
#36
b0 >"
b10011010010 j"
b10000101001 v"
#37
b11111111110 "
b10 .
b1111101100010000 ;
b1111110000000011 K
b1011 [
b1 >"
b110101101001 j"
b1010100000 v"
#38
b0 >"
b101001100011 j"
b111111101101 v"
#39
b111111111110 "
b11111111110 .
b1111101011110110 ;
b1111101110110011 K
b1110 [
b101001100010 j"
b110010100110 v"
#40
b101110110111 j"
b101011010001 v"
#41
b100000000010 "
b111111111110 .
b1111101100000010 ;
b1111110001001100 K
b1000 [
b1100111010 j"
b111010101101 v"
#42
b1 >"
b11111111111 j"
b1010101111 v"
#43
b10 "
b100000000010 .
b1111101100010111 ;
b1111110000111101 K
b110 [
b0 >"
b10101110000 j"
b10000100101 v"
#44
b1 >"
b1110101 j"
b1001111101 v"
#45
b11111111110 "
b10 .
b1111101101101011 ;
b1111110000011000 K
b1011 [
b110110010101 j"
b1010101 v"
#46
b101100111011 j"
b10110 v"
#47
b111111111110 "
b11111111110 .
b1111101101100010 ;
b1111110000101111 K
b1001 [
b0 >"
b100111111011 j"
b110100011110 v"
#48
b101110101010 j"
b101010000110 v"
#49
b100000000010 "
b111111111110 .
b1111101011011110 ;
b1111101111111010 K
b101 [
b1101011001 j"
b111010001111 v"
#51
b10 "
b100000000010 .
b1111101011100110 ;
b1111110001011000 K
b110 [
b11111111111 j"
b1011001101 v"
#52
b10011011110 j"
b10000001001 v"
#53
b100000000010 "
b111111111110 .
b1111101100010001 ;
b1111110000111101 K
b1010 [
b1111111111111110 >"
b110101101001 j"
b1010100011 v"
#54
b101001110011 j"
b111111110111 v"
#55
b10 "
b100000000010 .
b1111101011001010 ;
b1111110000001101 K
b1100 [
b101001010011 j"
b110011000001 v"
#56
b101011001000 j"
b101011000011 v"
#57
b11111111110 "
b10 .
b1111101010011101 ;
b1111110011000001 K
b1010 [
b101111010101 j"
b111010100011 v"
#58
b101110110000 j"
b110010111 v"
#59
b111111111110 "
b11111111110 .
b1111101010000101 ;
b1111110011000010 K
b1011 [
b101001001001 j"
b110110010101 v"
#60
b101110000001 j"
b101001000101 v"
#61
b100000000010 "
b111111111110 .
b1111101010110010 ;
b1111110010100001 K
b10010 [
b1111101011100000 {
b1111110000010001 -"
1="
b1111111111111100 >"
b1100111010 j"
b111010010101 v"
#62
0="
b1111111111111111 >"
b1111111111111 N"
b11111111111 j"
b1011001101 v"
#63
b10 "
b100000000010 .
b1111101010100001 ;
b1111110010101011 K
b10011 [
b10101100011 j"
b10000100010 v"
#64
b1010111 j"
b1010001101 v"
#65
b11111111110 "
b10 .
b1111101000100011 ;
b1111110001011000 K
b10000 [
b1 >"
b110110111001 j"
b1100010 v"
#66
b1111111111111111 >"
#67
b111111111110 "
b11111111110 .
b1111101001001110 ;
b1111110010011011 K
b10001 [
b101100001011 j"
b111111110001 v"
#68
b0 >"
b101110101101 j"
b110111000110 v"
#69
b100000000010 "
b111111111110 .
b1111101010111010 ;
b1111110001010111 K
b10101 [
b1111111111111111 >"
b1101010110 j"
b111001101011 v"
#70
b0 >"
b11111111111 j"
b1001000001 v"
#71
b10 "
b100000000010 .
b1111101010111110 ;
b1111101111111010 K
b10100 [
b1 >"
b10101001001 j"
b10001001000 v"
#72
b0 >"
b10001010 j"
b1010011111 v"
#73
b11111111110 "
b10 .
b1111101011011110 ;
b1111110010001011 K
b1110 [
b1 >"
b110110011101 j"
b111010 v"
#74
b0 >"
b101100111010 j"
b111111111101 v"
#75
b111111111110 "
b11111111110 .
b1111101100001011 ;
b1111110001101001 K
b1011 [
b100111101111 j"
b110100111001 v"
#76
b101110111101 j"
b101010011110 v"
#77
b100000000010 "
b111111111110 .
b1111101101101000 ;
b1111110000110111 K
b1110 [
b1101010010 j"
b111010100100 v"
#78
b1111111111111111 >"
b11111111111 j"
b1010110011 v"
#79
b10 "
b100000000010 .
b1111101100111101 ;
b1111110001000101 K
b1011 [
b0 >"
b10101000001 j"
b10001000010 v"
#80
b1010010 j"
b1010010101 v"
#81
b11111111110 "
b10 .
b1111101101111010 ;
b1111110011010111 K
b110 [
b101 k
b1 >"
b110111000100 j"
b110110 v"
#82
b0 >"
#83
b111111111110 "
b11111111110 .
b1111101100111000 ;
b1111101111011011 K
b1000 [
b100 k
b1111111111111111 >"
b101100101001 j"
b111111101010 v"
#84
b101110000011 j"
b110111110010 v"
#85
b11111111110 "
b10 .
b1111101110011010 ;
b1111110010001000 K
b1010 [
b0 >"
b1101000110 j"
b111001111011 v"
#86
b1 >"
b11111111111 j"
b1000011101 v"
#87
b111111111110 "
b11111111110 .
b1111101001100100 ;
b1111101100010111 K
b101 [
b1111111111111111 >"
b10100110010 j"
b10001011100 v"
#88
b100010100 j"
b1000101100 v"
#89
b100000000010 "
b111111111110 .
b1111101010000101 ;
b1111101111101011 K
b111 [
b0 >"
b10010101101 j"
b110110110001 v"
#90
b1111111111111111 >"
b11111111111 j"
b111011100100 v"
#91
b10 "
b100000000010 .
b1111101000100101 ;
b1111101001111001 K
b10101000000 j"
b10000000000 v"
#92
b1111111111111011 >"
b10111001 j"
b1100101111 v"
#93
b11111111110 "
b10 .
b1111101001110010 ;
b1111101100011001 K
b1101 [
b1111101101101001 {
b1111110010011000 -"
1="
b110110000010 j"
b111011 v"
#94
0="
b1111111111111101 >"
b101100101111 j"
b111111100010 v"
#95
b111111111110 "
b11111111110 .
b1111101000100110 ;
b1111101000100101 K
b11 [
b101000010100 j"
b110101000111 v"
#96
b101110100000 j"
b101010011100 v"
#97
b100000000010 "
b111111111110 .
b1111101000100011 ;
b1111101110000010 K
b110 [
b1101011001 j"
b111001111011 v"
#98
b11 >"
#99
b10 "
b100000000010 .
b1111101010001101 ;
b1111101111010010 K
b1111111111111111 [
b11111111111 j"
b1011000011 v"
#100
b100 >"
b10011010011 j"
b10000000011 v"
#101
b11111111110 "
b10 .
b1111110000000000 ;
b1111111001011010 K
b1110 [
b101 >"
b110100110001 j"
b1010100011 v"
#102
b1001 >"
b101010100011 j"
b111111011001 v"
#103
b111111111110 "
b11111111110 .
b1111110001001011 ;
b1111111100111110 K
b1100 [
b101001000010 j"
b110010100100 v"
#104
b111 >"
b101110110111 j"
b101011001100 v"
#105
b100000000010 "
b111111111110 .
b1111111001001001 ;
b1010010000 K
b1101 [
b1100111111 j"
b111010110010 v"
#106
b1010 >"
b11111111111 j"
b1010101111 v"
#107
b10 "
b100000000010 .
b1111111110111000 ;
b1110101011 K
b10101010001 j"
b10000010010 v"
#108
b101 >"
b1111110 j"
b1010011111 v"
#109
b11111111110 "
b10 .
b111100110 ;
b11001001110 K
b1111111111111100 [
b10 >"
b110110001111 j"
b1000111 v"
#110
b11 >"
b101100101100 j"
b111111111101 v"
#111
b111111111110 "
b11111111110 .
b1011111111 ;
b11010100100 K
b1111111111110010 [
b1111111111111101 >"
b101000010100 j"
b110100101000 v"
#112
b1111111111110110 >"
b101111000000 j"
b101010010000 v"
#113
b100000000010 "
b111111111110 .
b1110001100 ;
b11100101111 K
b1111111111011011 [
b11 k
b1111111111101110 >"
b1101000010 j"
b111010011001 v"
#114
b1111111111101010 >"
#115
b10 "
b100000000010 .
b10010100001 ;
b11111011101 K
b1111111111011100 [
b1111111111100001 >"
b11111111111 j"
b1011001010 v"
#116
b1111111111011000 >"
b10011010010 j"
b10000100100 v"
#117
b100000000010 "
b111111111110 .
b10110100101 ;
b11110111010 K
b1111111111011000 [
b1111111111001111 >"
b110101010110 j"
b1010011010 v"
#118
b1 >"
b101001101110 j"
b111111110111 v"
#119
b10 "
b100000000010 .
b10111110101 ;
b11101010101 K
b1111111111010111 [
b1111111111110110 >"
b101001010011 j"
b110011000101 v"
#120
b101111 >"
b101010111000 j"
b101010110101 v"
#121
b11111111110 "
b10 .
b11000100100 ;
b11111100101 K
b1111111111100100 [
b100101 >"
b101111010100 j"
b111010001111 v"
#122
b11100 >"
b101110101111 j"
b111000101 v"
#123
b111111111110 "
b11111111110 .
b11000110111 ;
b11111001111 K
b1111111111101101 [
b100 k
b11000 >"
b101001011101 j"
b110101110101 v"
#124
b11110 >"
b101101010110 j"
b101000111010 v"
#125
b100000000010 "
b111111111110 .
b11001010100 ;
b11110100101 K
b1111111111100111 [
b101 k
b1111010001 {
b11101011010 -"
1="
b11111 >"
b1101110010 j"
b111010011001 v"
#126
0="
b11101 >"
b10000000000011 N"
0^"
b0 _"
1e"
b11 f"
b11111111111 j"
b1010101100 v"
#127
b10 "
b100000000010 .
b10111101010 ;
b11110011100 K
b1111111111101001 [
b110 k
b100101 >"
b10101100101 j"
b10000010110 v"
#128
b1111111111111010 >"
b1111000 j"
b1010001011 v"
#129
b11111111110 "
b10 .
b10011001010 ;
b11011110110 K
b1111111111101101 [
b110 >"
b110110001010 j"
b1110010 v"
#130
b1001 >"
#131
b111111111110 "
b11111111110 .
b10000000100 ;
b11010010111 K
b1111111111101001 [
b111 k
b11010 >"
b101100010010 j"
b111111001101 v"
#132
b1111111111111010 >"
b101110110100 j"
b110111000001 v"
#133
b100000000010 "
b111111111110 .
b1100000000 ;
b10100111110 K
b1111111111100110 [
b1000 k
b1111111111010010 >"
b1100101101 j"
b111010010010 v"
#134
b1111111111100100 >"
b11111111111 j"
b1000011100 v"
#135
b10 "
b100000000010 .
b1000110011 ;
b10000101010 K
b1111111111100100 [
b1001 k
b1111111111111100 >"
b10100111001 j"
b10001011000 v"
#136
b10111 >"
b1110011 j"
b1010011100 v"
#137
b11111111110 "
b10 .
b1001110 ;
b110100101 K
b1111111111101101 [
b1000 k
b101010 >"
b110110110000 j"
b100011 v"
#138
b1111111111110110 >"
b101101000111 j"
b11 v"
#139
b111111111110 "
b11111111110 .
b1111111100001010 ;
b10011110 K
b1111111111110011 [
b1111111111111100 >"
b100111110111 j"
b110101001010 v"
#140
b1111111111111001 >"
b101101111010 j"
b101010010000 v"
#141
b100000000010 "
b111111111110 .
b1111110100100000 ;
b1111110111001100 K
b1111111111111101 [
b111 k
b1111111111111010 >"
b1101111010 j"
b111010001010 v"
#142
b1111111111111110 >"
b11111111111 j"
b1010110110 v"
#143
b10 "
b100000000010 .
b1111110001011101 ;
b1111110011100100 K
b0 [
b1111111111111001 >"
b10101100010 j"
b10000011001 v"
#144
b1111111111100111 >"
b1001111 j"
b1010110110 v"
#145
b11111111110 "
b10 .
b1111101101101110 ;
b1111101110001110 K
b11 [
b110 k
b1111111111010101 >"
b110110111111 j"
b1001010 v"
#146
b1111111111001011 >"
#147
b111111111110 "
b11111111110 .
b1111101011011001 ;
b1111101100010000 K
b101 k
b110110 >"
b101100001001 j"
b111111011011 v"
#148
b10111 >"
b101110110000 j"
b110111011110 v"
#149
b11111111110 "
b10 .
b1111101010100100 ;
b1111101010010010 K
b1 [
b100 k
b1111111111111011 >"
b1100100111 j"
b111010001111 v"
#150
b1111111111101100 >"
b11111111111 j"
b1000110111 v"
#151
b111111111110 "
b11111111110 .
b1111100110100111 ;
b1111101001110100 K
b10 [
b11 k
b10010 >"
b10101001110 j"
b10000101110 v"
#152
b1111111111110010 >"
b100000000 j"
b1000110110 v"
#153
b100000000010 "
b111111111110 .
b1111100111000110 ;
b1111101010001101 K
b1111111111111111 [
b10 k
b11100 >"
b10010100101 j"
b110110110001 v"
#154
b10010 >"
b11111111111 j"
b111011001001 v"
#155
b10 "
b100000000010 .
b1111100111100101 ;
b1111101010111111 K
b1001 [
b1011 >"
b10100111100 j"
b10000000110 v"
#156
b111 >"
b10100010 j"
b1100111010 v"
#157
b11111111110 "
b10 .
b1111100111001110 ;
b1111101011110110 K
b1111101101001000 {
b1111101101101110 -"
1="
b101 >"
b110110101000 j"
b101011 v"
#158
0="
b100 >"
b10000000000000 N"
1^"
b11 _"
0e"
b0 f"
b101101000001 j"
b111111010100 v"
#159
b111111111110 "
b11111111110 .
b1111101001111000 ;
b1111101011011001 K
b1000 >"
b100111110100 j"
b110100111011 v"
#160
b10011 >"
b101110011101 j"
b101010011101 v"
#161
b100000000010 "
b111111111110 .
b1111101101111101 K
b1100 [
b11 k
b1111111111011111 >"
b1110000111 j"
b111001111101 v"
#162
b1111111111101001 >"
#163
b10 "
b100000000010 .
b1111101100111111 ;
b1111110011010011 K
b100 [
b100 k
b1111111111111100 >"
b11111111111 j"
b1011001101 v"
#164
b1111111111010111 >"
b10011010010 j"
b10000101110 v"
#165
b11111111110 "
b10 .
b1111110001001011 ;
b1111111001000101 K
b1010 [
b101 k
b1111111111101101 >"
b110101000001 j"
b1010011110 v"
#166
b1111111111111011 >"
b101010001011 j"
b111111011110 v"
#167
b111111111110 "
b11111111110 .
b1111110001011000 ;
b1111111100101011 K
b1100 [
b110 k
b10010 >"
b101000111000 j"
b110011000100 v"
#168
b110000 >"
b101111001010 j"
b101010101100 v"
#169
b100000000010 "
b111111111110 .
b1111111001001101 ;
b1010000101 K
b1010 [
b11 >"
b1100101101 j"
b111010110101 v"
#170
b1111111111001100 >"
b11111111111 j"
b1010110101 v"
#171
b10 "
b100000000010 .
b1111111110111001 ;
b1110010001 K
b1100 [
b101 k
b1111111111010101 >"
b10101111010 j"
b10000011100 v"
#172
b1111111111011110 >"
b1101001 j"
b1001110101 v"
#173
b11111111110 "
b10 .
b111011100 ;
b11000101100 K
b1111111111111100 [
b100 k
b1111111111100001 >"
b110110000011 j"
b1101110 v"
#174
b1111111111011110 >"
b101100101000 j"
b111111101011 v"
#175
b111111111110 "
b11111111110 .
b1011110011 ;
b11001111001 K
b1111111111110011 [
b1 k
b1111111111011000 >"
b100111111110 j"
b110100011011 v"
#176
b1111111111001111 >"
b101110101100 j"
b101010101011 v"
#177
b100000000010 "
b111111111110 .
b1101110111 ;
b11100001011 K
b1111111111011101 [
b1111111111111101 k
b1111111111000111 >"
b1101100100 j"
b111010111010 v"
#178
b10 >"
#179
b10 "
b100000000010 .
b10010010000 ;
b11110111110 K
b1111111111011110 [
b1111111111111010 k
b110001 >"
b11111111111 j"
b1011000111 v"
#180
b10110 >"
b10011000001 j"
b10000100000 v"
#181
b100000000010 "
b111111111110 .
b10110010001 ;
b11110101011 K
b1111111111011010 [
b1111111111110110 k
b1111111111111110 >"
b110101011100 j"
b1010011001 v"
#182
b1111111111110010 >"
b101010001101 j"
b111111011111 v"
#183
b10 "
b100000000010 .
b10111101100 ;
b11101010110 K
b1111111111011000 [
b1111111111110011 k
b1111111111011110 >"
b101000110000 j"
b110011000100 v"
#184
b100 >"
b101011010100 j"
b101010111001 v"
#185
b11111111110 "
b10 .
b11000011001 ;
b11111110000 K
b1111111111100100 [
b1111111111110001 k
b1111111111110100 >"
b101110111110 j"
b111010010000 v"
#186
b101101 >"
b101111000111 j"
b110110000 v"
#187
b111111111110 "
b11111111110 .
b11000110111 ;
b11111101001 K
b1111111111101101 [
b1111111111101111 k
b100111 >"
b101001011001 j"
b110101110010 v"
#188
b100001 >"
b101101100010 j"
b101000111101 v"
#189
b100000000010 "
b111111111110 .
b11001010001 ;
b11111001010 K
b1111111111100110 [
b1110111101 {
b11100110111 -"
1="
b1101001110 j"
b111010110101 v"
#190
0="
b100100 >"
b10000000000100 N"
0^"
b0 _"
1e"
b11 f"
b11111111111 j"
b1010100001 v"
#191
b10 "
b100000000010 .
b10111110001 ;
b11111000010 K
b1111111111101000 [
b101111 >"
b10101011100 j"
b10000010110 v"
#192
b1111111111111001 >"
b1100100 j"
b1010010001 v"
#193
b11111111110 "
b10 .
b10011010111 ;
b11100011000 K
b1111111111101011 [
b1111111111110000 k
b10 >"
b110110111000 j"
b1010100 v"
#194
b101 >"
#195
b111111111110 "
b11111111110 .
b10000010111 ;
b11010110101 K
b1111111111100111 [
b1111111111110001 k
b11001 >"
b101011110110 j"
b111111100101 v"
#196
b1111111111111010 >"
b101110101000 j"
b110111010011 v"
#197
b100000000010 "
b111111111110 .
b1100011011 ;
b10101001011 K
b1111111111100101 [
b1111111111110011 k
b1111111111010011 >"
b1101001100 j"
b111001110011 v"
#198
b1111111111100011 >"
b11111111111 j"
b1001000110 v"
#199
b10 "
b100000000010 .
b1001010110 ;
b10000101110 K
b1111111111100011 [
b1111111111110100 k
b1111111111111001 >"
b10101001100 j"
b10001001110 v"
#200
b10111 >"
b10000001 j"
b1010011011 v"
#201
b11111111110 "
b10 .
b1111100 ;
b110011000 K
b1111111111101101 [
b1111111111110110 k
b101011 >"
b110110010110 j"
b110100 v"
#202
b110010 >"
b101101001011 j"
b111111110001 v"
#203
b111111111110 "
b11111111110 .
b1111111100111001 ;
b10001001 K
b1111111111110011 [
b1111111111110111 k
b1111111111110100 >"
b100111101001 j"
b110101000100 v"
#204
b1111111111110101 >"
b101110100001 j"
b101010001110 v"
#205
b100000000010 "
b111111111110 .
b1111110101011100 ;
b1111110110101001 K
b1111111111111101 [
b1111111111111000 k
b1111111111110100 >"
b1101100010 j"
b111010010011 v"
#206
b1111111111110110 >"
b11111111111 j"
b1010100011 v"
#207
b10 "
b100000000010 .
b1111110010010111 ;
b1111110010111001 K
b0 [
b1111111111111001 k
b1111111111101110 >"
b10101001001 j"
b10000010010 v"
#208
b1111111111100001 >"
b1001000 j"
b1010011011 v"
#209
b11111111110 "
b10 .
b1111101110110011 ;
b1111101101100000 K
b1 [
b1111111111111011 k
b1111111111010111 >"
b110111001101 j"
b1010001 v"
#210
b1111111111001100 >"
#211
b111111111110 "
b11111111110 .
b1111101100011001 ;
b1111101011011111 K
b0 [
b1111111111111100 k
b110111 >"
b101100010001 j"
b111111001110 v"
#212
b10101 >"
b101110100110 j"
b110111001110 v"
#213
b11111111110 "
b10 .
b1111101011011100 ;
b1111101001100000 K
b1111111111111101 [
b1111111111111110 k
b1111111111111101 >"
b1100111111 j"
b111010010000 v"
#214
b1111111111101101 >"
b11111111111 j"
b1000101110 v"
#215
b111111111110 "
b11111111110 .
b1111100111010111 ;
b1111101001000001 K
b1111111111111111 k
b10100 >"
b10100111110 j"
b10001001100 v"
#216
b1111111111110000 >"
b100100000 j"
b1000110110 v"
#217
b100000000010 "
b111111111110 .
b1111100111101101 ;
b1111101001011001 K
b1111111111111010 [
b1 k
b1111111111011011 >"
b10010010100 j"
b110111000010 v"
#218
b10011 >"
b11111111111 j"
b111011001111 v"
#219
b10 "
b100000000010 .
b1111100111110110 ;
b1111101010000110 K
b100 [
b1011 >"
b10101011111 j"
b1111110101 v"
#220
b111 >"
b1110010 j"
b1101011110 v"
#221
b11111111110 "
b10 .
b1111100111010110 ;
b1111101011000000 K
b10 k
b1111101110001100 {
b1111101100111111 -"
1="
b110 >"
b110110110100 j"
b10000 v"
#222
0="
b1 >"
b10000000000000 N"
1^"
b11 _"
0e"
b0 f"
b101101000101 j"
b111111101000 v"
#223
b111111111110 "
b11111111110 .
b1111101001110011 ;
b1111101010100101 K
b110 [
b11 k
b111 >"
b100111100010 j"
b110101100001 v"
#224
b10001 >"
b101110100100 j"
b101010000100 v"
#225
b100000000010 "
b111111111110 .
b1111101001100010 ;
b1111101101000010 K
b1010 [
b11100 >"
b1101101101 j"
b111010010011 v"
#226
b1111111111101000 >"
#227
b10 "
b100000000010 .
b1111101100100100 ;
b1111110010100100 K
b10 [
b101 k
b1111111111111011 >"
b11111111111 j"
b1010111110 v"
#228
b1111111111010101 >"
b10010110101 j"
b10000011011 v"
#229
b11111111110 "
b10 .
b1111110000101001 ;
b1111111000011100 K
b1001 [
b110 k
b1111111111101011 >"
b110101011110 j"
b1001111101 v"
#230
b1111111111111010 >"
b101010000011 j"
b111111101111 v"
#231
b111111111110 "
b11111111110 .
b1111110000110110 ;
b1111111100010000 K
b1100 [
b10001 >"
b101000111101 j"
b110010110100 v"
#232
b110000 >"
b101111011000 j"
b101011000001 v"
#233
b100000000010 "
b111111111110 .
b1111111000101001 ;
b1010000001 K
b1011 [
b1111111111000100 >"
b1100111010 j"
b111011001001 v"
#234
b1111111111001101 >"
b11111111111 j"
b1010011111 v"
#235
b10 "
b100000000010 .
b1111111110011100 ;
b1110100011 K
b1101 [
b1111111111010110 >"
b10101010110 j"
b10000011011 v"
#236
b1111111111011111 >"
b10001000 j"
b1010010001 v"
#237
b11111111110 "
b10 .
b111000010 ;
b11001010011 K
b1111111111111101 [
b100 k
b1111111111100001 >"
b110110010111 j"
b1010000 v"
#238
b101100110101 j"
b1111 v"
#239
b111111111110 "
b11111111110 .
b1011011110 ;
b11010110001 K
b1111111111110010 [
b1 k
b1111111111011010 >"
b101000100110 j"
b110100101100 v"
#240
b1111111111010010 >"
b101110100011 j"
b101010000101 v"
#241
b100000000010 "
b111111111110 .
b1101110000 ;
b11101000101 K
b1111111111011011 [
b1111111111111110 k
b1111111111001010 >"
b1100111010 j"
b111010101110 v"
#242
b101 >"
#243
b10 "
b100000000010 .
b10010001010 ;
b11111111011 K
b1111111111111010 k
b1111111111110101 >"
b11111111111 j"
b1011000110 v"
#244
b10101 >"
b10011010001 j"
b10000001010 v"
#245
b100000000010 "
b111111111110 .
b10110001110 ;
b11111100001 K
b1111111111010110 [
b1111111111110110 k
b0 >"
b110101011000 j"
b1010010100 v"
#246
b1111111111110101 >"
b101010001010 j"
b10 v"
#247
b10 "
b100000000010 .
b10111100101 ;
b11101111110 K
b1111111111010100 [
b1111111111110011 k
b1111111111011111 >"
b101001010010 j"
b110010111011 v"
#248
b101 >"
b101010101110 j"
b101011010110 v"
#249
b11111111110 "
b10 .
b11000010101 ;
b100000000111 K
b1111111111100000 [
b1111111111110001 k
b1111111111110001 >"
b101111011010 j"
b111010101111 v"
#250
b101011 >"
b101111000100 j"
b110011110 v"
#251
b111111111110 "
b11111111110 .
b11000101010 ;
b11111101001 K
b1111111111101010 [
b1111111111110000 k
b100011 >"
b101000101101 j"
b110110010000 v"
#252
b11100 >"
b101101101100 j"
b101001001110 v"
#253
b100000000010 "
b111111111110 .
b11001001100 ;
b11110111000 K
b1111111111100100 [
b1111111111101111 k
b1110110110 {
b11101110010 -"
1="
b11110 >"
b1101011111 j"
b111010101001 v"
#254
0="
b100000 >"
b10000000000011 N"
0^"
b0 _"
1e"
b11 f"
b11111111111 j"
b1010111111 v"
#255
b10 "
b100000000010 .
b10111100110 ;
b11110100001 K
b1111111111100111 [
b101011 >"
b10101111001 j"
b10000001001 v"
#256
b1111111111110101 >"
b1011001 j"
b1010010101 v"
#257
b11111111110 "
b10 .
b10011001101 ;
b11011101111 K
b1111111111101100 [
b1111111111110000 k
b1111111111111110 >"
b110110011010 j"
b1010011 v"
#258
b11 >"
#259
b111111111110 "
b11111111110 .
b10000010101 ;
b11010000110 K
b1111111111101000 [
b1111111111110001 k
b10110 >"
b101100010111 j"
b111111100010 v"
#260
b1111111111111001 >"
b101110111001 j"
b110111010111 v"
#261
b100000000010 "
b111111111110 .
b1100011001 ;
b10100100111 K
b1111111111100110 [
b1111111111110010 k
b1111111111010010 >"
b1101001000 j"
b111001110000 v"
#262
b1111111111100011 >"
b11111111111 j"
b1000111001 v"
#263
b10 "
b100000000010 .
b1001011000 ;
b10000001111 K
b1111111111110100 k
b1111111111111010 >"
b10101010110 j"
b10001011000 v"
#264
b11001 >"
b1101100 j"
b1010001111 v"
#265
b11111111110 "
b10 .
b1111101 ;
b110000001 K
b1111111111101111 [
b1111111111110101 k
b101011 >"
b110110011101 j"
b111101 v"
#266
b110010 >"
b101101000010 j"
b10010 v"
#267
b111111111110 "
b11111111110 .
b1111111100110101 ;
b10000011 K
b1111111111110101 [
b1111111111110111 k
b1111111111110110 >"
b101000000001 j"
b110100101110 v"
#268
b1111111111111000 >"
b101101111001 j"
b101010100101 v"
#269
b100000000010 "
b111111111110 .
b1111110101010100 ;
b1111110110101101 K
b1111111111111101 [
b1111111111111000 k
b1110100100 j"
b111010010111 v"
#270
b1111111111110111 >"
b11111111111 j"
b1010101001 v"
#271
b10 "
b100000000010 .
b1111110010001011 ;
b1111110011001101 K
b0 [
b1111111111111001 k
b1111111111101111 >"
b10101001110 j"
b10000110011 v"
#272
b1111111111100100 >"
b1110001 j"
b1010011000 v"
#273
b11111111110 "
b10 .
b1111101110100010 ;
b1111101101111001 K
b1 [
b1111111111111010 k
b1111111111011000 >"
b110110101011 j"
b1001010 v"
#274
b1111111111001110 >"
#275
b111111111110 "
b11111111110 .
b1111101100000000 ;
b1111101011111100 K
b1111111111111100 k
b111001 >"
b101100100100 j"
b111111101010 v"
#276
b10110 >"
b101110101101 j"
b110111101100 v"
#277
b11111111110 "
b10 .
b1111101011001010 ;
b1111101001111001 K
b1111111111111110 [
b1111111111111101 k
b1111111111111101 >"
b1100110000 j"
b111010010010 v"
#278
b1111111111101111 >"
b11111111111 j"
b1000011101 v"
#279
b111111111110 "
b11111111110 .
b1111100111000100 ;
b1111101001001110 K
b1111111111111111 [
b1111111111111110 k
b10010 >"
b10101010100 j"
b10001000111 v"
#280
b1111111111110010 >"
b11110110 j"
b1001001010 v"
#281
b100000000010 "
b111111111110 .
b1111100111100011 ;
b1111101001100001 K
b1111111111111100 [
b1111111111111111 k
b1111111111011011 >"
b10010010100 j"
b110110111010 v"
#282
b10011 >"
b11111111111 j"
b111011010011 v"
