implementation/QPSK.vcd
$date
        2025-Dec-23 16:14:55
$end
$version
        Vivado v2024.2 (64-bit)
$end
$timescale
        1ps
$end
$scope module dut $end
$var reg 12 " DAC_I [11:0] $end
$var reg 12 . DAC_Q [11:0] $end
$var reg 1 : tx_serial $end
$var reg 16 ; I_16M [15:0] $end
$var reg 16 K Q_16M [15:0] $end
$var reg 16 [ error_tdata [15:0] $end
$var reg 16 k feedback_tdata [15:0] $end
$var reg 16 { I_1M [15:0] $end
$var reg 16 -" Q_1M [15:0] $end
$var reg 1 =" clk_1M_out $end
$var reg 16 >" gardner_error [15:0] $end
$var reg 16 N" gardner_increment [15:0] $end
$var reg 1 ^" BPSK_raw $end
$var reg 2 _" QPSK_raw [1:0] $end
$var reg 1 a" SD_flag $end
$var reg 1 b" PD_flag $end
$var reg 1 c" BD_flag $end
$var reg 1 d" rx_data_tlast $end
$var reg 1 e" BPSK $end
$var reg 2 f" QPSK [1:0] $end
$var reg 1 h" rx_serial $end
$var reg 1 i" Rx_valid $end
$var reg 12 j" ADC_I [11:0] $end
$var reg 12 v" ADC_Q [11:0] $end
$var reg 1 $# _TRIGGER $end
$var reg 1 %# _WINDOW $end
$var reg 1 &# _GAP $end
$upscope $end
$enddefinitions $end
#0
$dumpvars
b10 "
b100000000010 .
0:
b10111000000 ;
b11110100101 K
b1111111111111101 [
b1111111111111100 k
b1011010110 {
b11001111110 -"
0="
b101101 >"
b10000000000011 N"
0^"
b0 _"
1a"
1b"
0c"
0d"
1e"
b11 f"
0h"
0i"
b101011001010 j"
b110100011110 v"
0$#
1%#
0&#
$end
#1
b11111111110 "
b10 .
b10000100101 ;
b11000111010 K
b1111111111110000 [
b1111111111111101 k
b1111111111011001 >"
b1101110010 j"
b110111111101 v"
#2
b1111111111110100 >"
b11111111111 j"
b1110110110 v"
#3
b111111111110 "
b11111111110 .
b1011010001 ;
b10100110000 K
b1111111111100110 [
b1111111111111100 k
b11011 >"
b11000100000 j"
b11001011001 v"
#4
b1101 >"
b101011 j"
b1101100001 v"
#5
b100000000010 "
b111111111110 .
b1111111111110101 ;
b1001011100 K
b1111111111101010 [
b1111111111111011 k
b1111111111101100 >"
b110100111010 j"
b11011 v"
#6
b1111111111111100 >"
b101010110001 j"
b111110111111 v"
#7
b10 "
b100000000010 .
b1111111000100101 ;
b101100001 K
b1111111111101101 [
b1111111111111010 k
b11 >"
b101010100110 j"
b110001100100 v"
#8
b101 >"
b100110100101 j"
b100101100011 v"
#9
b11111111110 "
b10 .
b1111101101011001 ;
b1111111000101110 K
b1111111111111010 [
b1111111111111000 k
b111 >"
b1111001110 j"
b110111111011 v"
#10
b11111111111 j"
b1100010111 v"
#11
b111111111110 "
b11111111110 .
b1111101001110111 ;
b1111110100111110 K
b1 [
b1111111111111100 >"
b11000001110 j"
b10100111011 v"
#12
b101000 >"
b100001 j"
b1101001000 v"
#13
b100000000010 "
b111111111110 .
b1111100100100101 ;
b1111101110000111 K
b10010 [
b1111111111111001 k
b10011 >"
b110101001000 j"
b1010000 v"
#14
b0 >"
#15
b10 "
b100000000010 .
b1111100001111101 ;
b1111101011011101 K
b10111 [
b1111111111111100 k
b1111111111011101 >"
b101001101111 j"
b111111000001 v"
#16
b100110 >"
b101011000011 j"
b110100010111 v"
#17
b100000000010 "
b111111111110 .
b1111100001001000 ;
b1111101000100100 K
b11010 [
b1 k
b1111111111111010 >"
b1110010001 j"
b110111000101 v"
#18
b1111111111011111 >"
b11111111111 j"
b1010101010 v"
#19
b10 "
b100000000010 .
b1111011100111101 ;
b1111101000000100 K
b11110 [
b110 k
b110011 >"
b10111100110 j"
b10110010010 v"
#20
b1111110000001100 {
b1111111011111010 -"
1="
b1111111111111110 >"
b110000101 j"
b1011110000 v"
#21
b11111111110 "
b10 .
b1111011110100111 ;
b1111101000001101 K
b11001 [
b1100 k
0="
b1111111111011101 >"
b1111111111111 N"
1^"
b11 _"
0e"
b0 f"
b10111101001 j"
b110101100100 v"
#22
b1111111111001111 >"
b11111111111 j"
b111011110010 v"
#23
b111111111110 "
b11111111110 .
b1111011111000101 ;
b1111101000000010 K
b101000 [
b10010 k
b1111111111000110 >"
b10101101010 j"
b10100110000 v"
#24
b1111111111111110 >"
b10011111 j"
b10000111000 v"
#25
b100000000010 "
b111111111110 .
b1111011110101111 ;
b1111101000110000 K
b100010 [
b10111 k
b1111111111111011 >"
b110100110011 j"
b11110 v"
#26
b1111111111111001 >"
b101011000111 j"
b111110011111 v"
#27
b10 "
b100000000010 .
b1111100010000111 ;
b1111100111011011 K
b11111 [
b11011 k
b10 >"
b101010000011 j"
b110010000010 v"
#28
b10100 >"
b100110111111 j"
b100101111101 v"
#29
b11111111110 "
b10 .
b1111100010011010 ;
b1111101001111101 K
b100011 [
b11101 k
b1111111111100110 >"
b1111000101 j"
b110111100110 v"
#30
b1111111111110111 >"
#31
b111111111110 "
b11111111110 .
b1111100110110010 ;
b1111101111111001 K
b10010 [
b11110 k
b10111 >"
b11111111111 j"
b1100111100 v"
#32
b110 >"
b10101101001 j"
b10101000010 v"
#33
b100000000010 "
b111111111110 .
b1111101100011110 ;
b1111110110101011 K
b11000 [
b100111 >"
b110010010011 j"
b1101010000 v"
#34
b1111111111111111 >"
b101001010100 j"
b111111010000 v"
#35
b10 "
b100000000010 .
b1111101101101100 ;
b1111111011010111 K
b10111 [
b11011 k
b1111111111100100 >"
b101010011100 j"
b101110110000 v"
#36
b10100 >"
b100110001100 j"
b100110011011 v"
#37
b11111111110 "
b10 .
b1111111001010110 ;
b1011101001 K
b10010 [
b10111 k
b110001 >"
b10000010010 j"
b111000001111 v"
#38
b1111111111111011 >"
b11111111111 j"
b1100110101 v"
#39
b111111111110 "
b11111111110 .
b10000001 ;
b10000010110 K
b10011 [
b10010 k
b111 >"
b10111000011 j"
b10101011110 v"
#40
b1111111111010111 >"
b10001101 j"
b1101010101 v"
#41
b100000000010 "
b111111111110 .
b1110010010 ;
b11101000011 K
b1111111111111010 [
b1011 k
b1111111111011100 >"
b110100011011 j"
b1000111 v"
#42
b11000 >"
b101010100111 j"
b111111001001 v"
#43
b10 "
b100000000010 .
b10100001110 ;
b11111000001 K
b1111111111101111 [
b100 k
b1111 >"
b101001110000 j"
b110001101011 v"
#44
b1111111111111111 >"
b101000000110 j"
b100110000100 v"
#45
b11111111110 "
b10 .
b10111110101 ;
b100001111111 K
b1111111111011000 [
b1111111111111101 k
b1111111111110100 >"
b1111000101 j"
b110111110101 v"
#46
b1111111111101001 >"
#47
b111111111110 "
b11111111110 .
b11101001110 ;
b100101101000 K
b1111111111011101 [
b1111111111110111 k
b1101 >"
b11111111111 j"
b1100110100 v"
#48
b100000 >"
b10111001110 j"
b10101100001 v"
#49
b11111111110 "
b10 .
b100010011101 ;
b100100101001 K
b1111111111011011 [
b1111111111110011 k
b0 >"
b110000101101 j"
b1101011110 v"
#50
b1111111111100111 >"
b101001100110 j"
b111110110001 v"
#51
b111111111110 "
b11111111110 .
b100011110101 ;
b100010100111 K
b1111111111011100 [
b1111111111110001 k
b100 >"
b101001101000 j"
b101111010101 v"
#52
b1011001101 {
b11001110111 -"
1="
b11011 >"
b101000110001 j"
b100110000010 v"
#53
b100000000010 "
b111111111110 .
b100100110100 ;
b100100101011 K
b1111111111110110 [
b1111111111110000 k
0="
b0 >"
b10000000000011 N"
0^"
b0 _"
1e"
b11 f"
b100111101000 j"
b110111111011 v"
#54
b1111111111110100 >"
b101001110001 j"
b110001010 v"
#55
b10 "
b100000000010 .
b100100010001 ;
b100100010001 K
b101 [
b1111111111110010 k
b1111111111101010 >"
b110000001101 j"
b110011000000 v"
#56
b1111111111011110 >"
b100100111101 j"
b100011111011 v"
#57
b11111111110 "
b10 .
b100100101000 ;
b100010101010 K
b0 [
b1111111111110101 k
b11010 >"
b1101100010 j"
b111000110000 v"
#58
b1111111111100100 >"
b11111111111 j"
b10001110000 v"
#59
b111111111110 "
b11111111110 .
b100001111010 ;
b100010010011 K
b1111111111111000 k
b1111111111101111 >"
b10101110100 j"
b11001000111 v"
#60
b11 >"
b1110100 j"
b1100111010 v"
#61
b100000000010 "
b111111111110 .
b11011110010 ;
b11111101000 K
b1000 [
b1111111111111011 k
b1111111111010001 >"
b110100111010 j"
b110111 v"
#62
b1111111111011000 >"
#63
b10 "
b100000000010 .
b10111001000 ;
b11110000101 K
b1111111111111110 [
b1111111111111101 k
b1111111111111000 >"
b101001101110 j"
b111110110011 v"
#64
b110010 >"
b101011110000 j"
b110100101111 v"
#65
b11111111110 "
b10 .
b10000110101 ;
b11000010011 K
b1111111111110001 [
b1111111111111110 k
b1111111111011100 >"
b1101100001 j"
b110111001110 v"
#66
b1111111111110111 >"
b11111111111 j"
b1010100001 v"
#67
b111111111110 "
b11111111110 .
b1011011010 ;
b10100000101 K
b1111111111101000 [
b1111111111111101 k
b11101 >"
b11000010001 j"
b10110010101 v"
#68
b10000 >"
b111001 j"
b1101111011 v"
#69
b100000000010 "
b111111111110 .
b1111111111111011 ;
b1000110100 K
b1111111111101100 [
b1111111111111100 k
b1111111111101110 >"
b110100100000 j"
b111010 v"
#70
b1111111111111100 >"
b101011001101 j"
b111111001000 v"
#71
b10 "
b100000000010 .
b1111111000001011 ;
b101001100 K
b1111111111101110 [
b1111111111111011 k
b10 >"
b101010101000 j"
b110001011111 v"
#72
b110 >"
b100110010101 j"
b100101101110 v"
#73
b11111111110 "
b10 .
b1111101100101010 ;
b1111111000101001 K
b1111111111111011 [
b1111111111111001 k
b111 >"
b10000010100 j"
b111000000001 v"
#74
b110 >"
b11111111111 j"
b1101001111 v"
#75
b111111111110 "
b11111111110 .
b1111101000100011 ;
b1111110101010010 K
b10 [
b1111111111111001 >"
b10111110011 j"
b10101000011 v"
#76
b100101 >"
b1011100 j"
b1101001100 v"
#77
b100000000010 "
b111111111110 .
b1111100010110110 ;
b1111101110111010 K
b10100 [
b1111111111111010 k
b10100 >"
b110100100111 j"
b1100100 v"
#78
b1111111111111111 >"
#79
b10 "
b100000000010 .
b1111011111110000 ;
b1111101100100101 K
b11011 [
b1111111111111101 k
b1111111111011101 >"
b101001110101 j"
b111110100111 v"
#80
b100100 >"
b101011010011 j"
b110100011111 v"
#81
b100000000010 "
b111111111110 .
b1111011110110101 ;
b1111101001111111 K
b100010 [
b1 k
b1111111111111000 >"
b1101100000 j"
b110111010100 v"
#82
b1111111111011111 >"
b11111111111 j"
b1010100011 v"
#83
b10 "
b100000000010 .
b1111011010100100 ;
b1111101001101010 K
b101001 [
b101 k
b110100 >"
b11001010001 j"
b10110011001 v"
#84
b1111111111111110 >"
b101010110 j"
b1100000101 v"
#85
b11111111110 "
b10 .
b1111011100010010 ;
b1111101001010001 K
b100110 [
b1001 k
b1111101011101000 {
b1111110111110011 -"
1="
b1111111111011100 >"
b10111100011 j"
b110101101100 v"
#86
0="
b1111111111010001 >"
b1111111111011 N"
1^"
b11 _"
0e"
b0 f"
b11111111111 j"
b111011101000 v"
#87
b111111111110 "
b11111111110 .
b1111011101011001 ;
b1111101001011001 K
b111000 [
b1100 k
b1111111111000101 >"
b10101101100 j"
b10100101100 v"
#88
b1 >"
b10010011 j"
b10000011010 v"
#89
b100000000010 "
b111111111110 .
b1111011101110011 ;
b1111101001111001 K
b101111 [
b1111 k
b1111111111111110 >"
b110100111000 j"
b11011 v"
#90
b1111111111111101 >"
b101010110101 j"
b111110110010 v"
#91
b10 "
b100000000010 .
b1111100001110001 ;
b1111101000011011 K
b101010 [
b10001 k
b11 >"
b101010001011 j"
b110010001000 v"
#92
b1111111111010110 >"
b100110111111 j"
b100101011010 v"
#93
b11111111110 "
b10 .
b1111100010101011 ;
b1111101010110010 K
b10010 k
b1111111111100111 >"
b1111101110 j"
b111000000100 v"
#94
b1111111111111001 >"
#95
b111111111110 "
b11111111110 .
b1111100111011001 ;
b1111110000100110 K
b10110 [
b11001 >"
b11111111111 j"
b1100110110 v"
#96
b1000 >"
b10101111110 j"
b10100111011 v"
#97
b100000000010 "
b111111111110 .
b1111101101001111 ;
b1111110111001111 K
b11001 [
b1111111111101011 >"
b110010000111 j"
b1101100110 v"
#98
b11 >"
b101001001000 j"
b111111001111 v"
#99
b10 "
b100000000010 .
b1111101110010000 ;
b1111111011110001 K
b10111 [
b10000 k
b1111111111100111 >"
b101010011111 j"
b101110111010 v"
#100
b11000 >"
b100110001010 j"
b100110100000 v"
#101
b11111111110 "
b10 .
b1111111001100010 ;
b1011111110 K
b10001 [
b1110 k
b110100 >"
b10000011101 j"
b111000001011 v"
#102
b1111111111111111 >"
b11111111111 j"
b1100110011 v"
#103
b111111111110 "
b11111111110 .
b1100011 ;
b10000011100 K
b10010 [
b1011 k
b1111111111001101 >"
b10111111111 j"
b10101010110 v"
#104
b1111111111011010 >"
b1001101 j"
b1101001111 v"
#105
b100000000010 "
b111111111110 .
b1101001001 ;
b11100111100 K
b1111111111111001 [
b110 k
b1111111111011110 >"
b110100100011 j"
b111101 v"
#106
b1111111111011001 >"
b101010101001 j"
b111111011110 v"
#107
b10 "
b100000000010 .
b10010011100 ;
b11110011101 K
b1111111111101111 [
b1 k
b1111 >"
b101010110011 j"
b110001111101 v"
#108
b0 >"
b100101111010 j"
b100101111000 v"
#109
b11111111110 "
b10 .
b10101001010 ;
b100001100010 K
b1111111111010110 [
b1111111111111100 k
b1111111111110010 >"
b1111111011 j"
b110111111000 v"
#110
b1111111111101011 >"
#111
b111111111110 "
b11111111110 .
b11010101001 ;
b100100100101 K
b1111111111011011 [
b1111111111111000 k
b1110 >"
b11111111111 j"
b1100110101 v"
#112
b100000 >"
b10101101100 j"
b10101010000 v"
#113
b11111111110 "
b10 .
b11111110111 ;
b100011011110 K
b1111111111010101 [
b1111111111110100 k
b1111111111111011 >"
b110010001001 j"
b1101100000 v"
#114
b1111111111101000 >"
b101010000111 j"
b111110111001 v"
#115
b111111111110 "
b11111111110 .
b100001011000 ;
b100001100011 K
b1111111111011000 [
b1111111111110010 k
b111 >"
b101001101001 j"
b101111011010 v"
#116
b1010001111 {
b11001110100 -"
1="
b11100 >"
b101000101011 j"
b100101110010 v"
#117
b100000000010 "
b111111111110 .
b100010110000 ;
b100011111010 K
b1111111111110000 [
0="
b1 >"
b10000000000011 N"
0^"
b0 _"
1e"
b11 f"
b101000000000 j"
b111000000000 v"
#118
b1111111111110110 >"
b101000100001 j"
b110000100 v"
#119
b10 "
b100000000010 .
b100011001011 ;
b100011100001 K
b1111111111111111 [
b1111111111110100 k
b1111111111101101 >"
b101101001011 j"
b110010111110 v"
#120
b1111111111100101 >"
b101001011001 j"
b100100001001 v"
#121
b11111111110 "
b10 .
b100011100101 ;
b100010100111 K
b1111111111111010 [
b1111111111110110 k
b1111111111100011 >"
b1101011111 j"
b110111111001 v"
#122
b1111111111101011 >"
b11111111111 j"
b1101010110 v"
#123
b111111111110 "
b11111111110 .
b100001011010 ;
b100010110001 K
b1111111111111110 [
b1111111111111001 k
b1111111111111000 >"
b10111100110 j"
b10101010100 v"
#124
b1010 >"
b1100001 j"
b1100111111 v"
#125
b100000000010 "
b111111111110 .
b11011100110 ;
b100000100010 K
b100 [
b1111111111111011 k
b1111111111010110 >"
b110101001011 j"
b1100011 v"
#126
b1111111111011110 >"
#127
b10 "
b100000000010 .
b10111000111 ;
b11111010101 K
b1111111111111010 [
b1111111111111101 k
b1111111111111100 >"
b101001100101 j"
b111110101010 v"
#128
b110010 >"
b101011001101 j"
b110100101001 v"
#129
b11111111110 "
b10 .
b10001000100 ;
b11001100101 K
b1111111111101101 [
b1111111111111110 k
b1111111111011011 >"
b1101110011 j"
b110111100000 v"
#130
b1111111111110100 >"
b11111111111 j"
b1010001111 v"
#131
b111111111110 "
b11111111110 .
b1011110101 ;
b10101010101 K
b1111111111100100 [
b1111111111111101 k
b11001 >"
b11001100111 j"
b10101110011 v"
#132
b111 >"
b111111100000 j"
b1101110001 v"
#133
b100000000010 "
b111111111110 .
b11110 ;
b1001110100 K
b1111111111101001 [
b1111111111111100 k
b1111111111100110 >"
b110101000100 j"
b111010 v"
#134
b1111111111110001 >"
b101010101111 j"
b111110110111 v"
#135
b10 "
b100000000010 .
b1111111001000001 ;
b101101100 K
b1111111111101100 [
b1111111111111010 k
b1111111111111001 >"
b101010011110 j"
b110001111001 v"
#136
b1111111111111011 >"
b100110100100 j"
b100101111000 v"
#137
b11111111110 "
b10 .
b1111101101110000 ;
b1111111000101000 K
b1111111111111001 [
b1111111111111001 k
b1111111111111100 >"
b1111010100 j"
b111000000111 v"
#138
b1111111111111001 >"
b11111111111 j"
b1101000100 v"
#139
b111111111110 "
b11111111110 .
b1111101001110111 ;
b1111110100010000 K
b1 [
b1111111111101111 >"
b11000010110 j"
b10101000111 v"
#140
b11110 >"
b111110 j"
b1101001110 v"
#141
b100000000010 "
b111111111110 .
b1111100100110001 ;
b1111101101110000 K
b10001 [
b1111111111111010 k
b1001 >"
b110100111010 j"
b1110100 v"
#142
b1111111111111100 >"
#143
b10 "
b100000000010 .
b1111100010000101 ;
b1111101010111111 K
b10110 [
b1111111111111110 k
b1111111111011000 >"
b101010010011 j"
b111110011010 v"
#144
b100110 >"
b101010011101 j"
b110100011111 v"
#145
b100000000010 "
b111111111110 .
b1111100001010000 ;
b1111101000001100 K
b11001 [
b10 k
b1111111111111010 >"
b1110100100 j"
b110111001010 v"
#146
b1111111111100000 >"
b11111111111 j"
b1010011100 v"
#147
b10 "
b100000000010 .
b1111011100111111 ;
b1111100111101000 K
b11100 [
b111 k
b1111111111111011 >"
b11000011000 j"
b10110010011 v"
#148
b1111110000100100 {
b1111111011111001 -"
1="
b100 >"
b101011111 j"
b1100011000 v"
#149
b11111111110 "
b10 .
b1111011110010100 ;
b1111100111011011 K
b10111 [
b1101 k
0="
b1111111111100010 >"
b10000000000000 N"
1^"
b11 _"
0e"
b0 f"
b10111101100 j"
b110101101001 v"
#150
b1111111111010100 >"
b11111111111 j"
b111011100001 v"
#151
b111111111110 "
b11111111110 .
b1111011111000010 ;
b1111100111110010 K
b100111 [
b10001 k
b1001 >"
b10110100110 j"
b10100100110 v"
#152
b110 >"
b1110111 j"
b10000101001 v"
#153
b100000000010 "
b111111111110 .
b1111011110111001 ;
b1111101000101100 K
b100001 [
b10101 k
b10 >"
b110100010010 j"
b10 v"
#154
b1111111111111101 >"
b101010111111 j"
b111110100001 v"
#155
b10 "
b100000000010 .
b1111100010010110 ;
b1111100111101011 K
b11111 [
b10111 k
b100 >"
b101010110001 j"
b110010001111 v"
#156
b10101 >"
b100101111000 j"
b100101110110 v"
#157
b11111111110 "
b10 .
b1111100010101110 ;
b1111101010010110 K
b100010 [
b11000 k
b1111111111101000 >"
b10000000101 j"
b111000000100 v"
#158
b1111111111110110 >"
#159
b111111111110 "
b11111111110 .
b1111100111000011 ;
b1111110000100001 K
b10001 [
b10101 >"
b11111111111 j"
b1100110010 v"
#160
b1 >"
b10101001010 j"
b10100110110 v"
#161
b100000000010 "
b111111111110 .
b1111101100101010 ;
b1111110111010000 K
b11000 [
b10110 k
b100100 >"
b110010111001 j"
b1101101001 v"
#162
b1111111111111100 >"
b101000111101 j"
b111111000011 v"
#163
b10 "
b100000000010 .
b1111101101101000 ;
b1111111011110111 K
b10111 [
b10100 k
b1111111111100001 >"
b101010101110 j"
b101111010001 v"
#164
b10000 >"
b100101011100 j"
b100110010000 v"
#165
b11111111110 "
b10 .
b1111111000110000 ;
b1100000010 K
b10010 [
b10000 k
b101111 >"
b10000001000 j"
b111000001000 v"
#166
b1111111111111011 >"
b11111111111 j"
b1101011001 v"
#167
b111111111110 "
b11111111110 .
b111111 ;
b10000011101 K
b10100 [
b1100 k
b1001 >"
b10110110111 j"
b10101001100 v"
#168
b11001 >"
b10010001 j"
b1101100001 v"
#169
b100000000010 "
b111111111110 .
b1100101111 ;
b11101000000 K
b1111111111111010 [
b111 k
b11101 >"
b110100000001 j"
b110111 v"
#170
b11011 >"
b101010111110 j"
b111111010100 v"
#171
b10 "
b100000000010 .
b10010001010 ;
b11110100011 K
b1111111111101111 [
b1 k
b1110 >"
b101010101011 j"
b110001110100 v"
#172
b0 >"
b100101111011 j"
b100101111000 v"
#173
b11111111110 "
b10 .
b10101010111 ;
b100001010111 K
b1111111111010101 [
b1111111111111011 k
b1111111111110100 >"
b10000000011 j"
b110111100010 v"
#174
b1111111111101101 >"
#175
b111111111110 "
b11111111110 .
b11010110100 ;
b100100011101 K
b1111111111011010 [
b1111111111110110 k
b10001 >"
b11111111111 j"
b1101000001 v"
#176
b100100 >"
b10100110011 j"
b10101000101 v"
#177
b11111111110 "
b10 .
b11111100011 ;
b100011110101 K
b1111111111010110 [
b1111111111110011 k
b0 >"
b110010111110 j"
b1101100110 v"
#178
b1111111111101001 >"
b101001011111 j"
b111110101111 v"
#179
b111111111110 "
b11111111110 .
b100001000010 ;
b100001111111 K
b1111111111011001 [
b1111111111110001 k
b1111111111001011 >"
b101001101111 j"
b101111010101 v"
#180
b1001110011 {
b11001110111 -"
1="
b11111 >"
b101000101001 j"
b100110010010 v"
#181
b100000000010 "
b111111111110 .
b100001111110 ;
b100100100101 K
b1111111111101101 [
b1111111111110000 k
0="
b11 >"
b10000000000011 N"
0^"
b0 _"
1e"
b11 f"
b100111111110 j"
b111000010000 v"
#182
b1111111111111001 >"
b101000101110 j"
b110000111 v"
#183
b10 "
b100000000010 .
b100010010101 ;
b100100001101 K
b1111111111111100 [
b1111111111110010 k
b1111111111101111 >"
b101011111001 j"
b110010111111 v"
#184
b1111111111100110 >"
b101011000100 j"
b100100011000 v"
#185
b11111111110 "
b10 .
b100010100101 ;
b100011011010 K
b1111111111110100 [
b1111111111110100 k
b1111111111100100 >"
b1100111011 j"
b111000000010 v"
#186
b1111111111101010 >"
b11111111111 j"
b1101000000 v"
#187
b111111111110 "
b11111111110 .
b100000010101 ;
b100011100101 K
b1111111111110111 [
b1111111111110110 k
b1111111111110111 >"
b11000011110 j"
b10101000111 v"
#188
b1001 >"
b110111 j"
b1101001111 v"
#189
b100000000010 "
b111111111110 .
b11010110000 ;
b100001001011 K
b1111111111111100 [
b1111111111111001 k
b1111111111010111 >"
b110101000010 j"
b1010100 v"
#190
b1111111111011111 >"
#191
b10 "
b100000000010 .
b10110101011 ;
b11111101010 K
b1111111111110010 [
b1111111111111010 k
b1111111111111100 >"
b101010110110 j"
b111110101000 v"
#192
b110010 >"
b101001101111 j"
b110100100011 v"
#193
b11111111110 "
b10 .
b10001001110 ;
b11001100011 K
b1111111111100111 [
b1111111111111011 k
b1111111111011011 >"
b1110101011 j"
b110111001001 v"
#194
b1111111111110101 >"
b11111111111 j"
b1010010101 v"
#195
b111111111110 "
b11111111110 .
b1100101110 ;
b10100101111 K
b1111111111100001 [
b11001 >"
b11000101100 j"
b10110010011 v"
#196
b1000 >"
b1010 j"
b1101010010 v"
#197
b100000000010 "
b111111111110 .
b10001000 ;
b1000110001 K
b1111111111101001 [
b1111111111111010 k
b1111111111100110 >"
b110101011000 j"
b1000001 v"
#198
b1111111111110011 >"
b101011000011 j"
b111111001100 v"
#199
b10 "
b100000000010 .
b1111111011010111 ;
b100001110 K
b1111111111101111 [
b1111111111111001 k
b1111111111111000 >"
b101001110111 j"
b110001010010 v"
#200
b1111111111111100 >"
b100111110001 j"
b100101101100 v"
#201
b11111111110 "
b10 .
b1111110000100001 ;
b1111110110101100 K
b1111111111111011 [
b1111111111111000 k
b1111111111111101 >"
b1111011011 j"
b111000000000 v"
#202
b1111111111111110 >"
b11111111111 j"
b1100011111 v"
#203
b111111111110 "
b11111111110 .
b1111101100101100 ;
b1111110010010100 K
b0 [
b1111111111111001 k
b1111111111110001 >"
b11001100101 j"
b10101001101 v"
#204
b11111 >"
b111111111110 j"
b1101110111 v"
#205
b100000000010 "
b111111111110 .
b1111100111100000 ;
b1111101011111100 K
b1001 [
b1111111111111010 k
b1101 >"
b110101011010 j"
b1010001 v"
#206
b1111111111111011 >"
#207
b10 "
b100000000010 .
b1111100100011001 ;
b1111101001011010 K
b1011 [
b1111111111111101 k
b1111111111011100 >"
b101001101001 j"
b111110100000 v"
#208
b100111 >"
b101011100000 j"
b110100100010 v"
#209
b100000000010 "
b111111111110 .
b1111100010111111 ;
b1111100110111111 K
b1100 [
b0 k
b1111111111111110 >"
b1110000011 j"
b110111001011 v"
#210
b1111111111100110 >"
b11111111111 j"
b1010011101 v"
#211
b10 "
b100000000010 .
b1111011110000111 ;
b1111100110111010 K
b1111 [
b100 k
b1111111111111101 >"
b10111100000 j"
b10110000100 v"
#212
b1011 >"
b101110111 j"
b1100000001 v"
#213
b11111111110 "
b10 .
b1111011110110110 ;
b1111100111001001 K
b1101 [
b1000 k
b1111101111100011 {
b1111110101100110 -"
1="
b1111111111100101 >"
b10111101100 j"
b110101100000 v"
#214
0="
b1111111111011000 >"
b1111111111100 N"
1^"
b11 _"
0e"
b0 f"
b11111111111 j"
b111011111010 v"
#215
b111111111110 "
b11111111110 .
b1111011111001011 ;
b1111100111110100 K
b100000 [
b1100 k
b1101 >"
b10110001000 j"
b10100110111 v"
#216
b110 >"
b10010100 j"
b10000101101 v"
#217
b100000000010 "
b111111111110 .
b1111011110110000 ;
b1111101000111010 K
b11110 [
b1110 k
b1 >"
b110100110011 j"
b11110 v"
#218
b0 >"
b101010111101 j"
b111110010111 v"
#219
b10 "
b100000000010 .
b1111100010001000 ;
b1111100111110111 K
b10000 k
b101 >"
b101010110111 j"
b110001100101 v"
#220
b10101 >"
b100101100011 j"
b100110010011 v"
#221
b11111111110 "
b10 .
b1111100010011111 ;
b1111101010100100 K
b100011 [
b10001 k
b1111111111100100 >"
b1111111011 j"
b110111011110 v"
#222
b1111111111110100 >"
#223
b111111111110 "
b11111111110 .
b1111100110111010 ;
b1111110000100101 K
b10011 [
b10010 k
b10010 >"
b11111111111 j"
b1100101001 v"
#224
b1111111111111111 >"
b10101000100 j"
b10101011001 v"
#225
b100000000010 "
b111111111110 .
b1111101100100011 ;
b1111110111001001 K
b11001 [
b10001 k
b1111111111100000 >"
b110010111001 j"
b1101100101 v"
#226
b1111111111110111 >"
b101000011010 j"
b111110111000 v"
#227
b10 "
b100000000010 .
b1111101101100011 ;
b1111111011101000 K
b11000 [
b10000 k
b11010 >"
b101010011111 j"
b101111010111 v"
#228
b1011 >"
b100110111000 j"
b100110010010 v"
#229
b11111111110 "
b10 .
b1111111001000110 ;
b1011010101 K
b10010 [
b1110 k
b1111111111101010 >"
b1111111100 j"
b110111111000 v"
#230
b1111111111110110 >"
b11111111111 j"
b1101000101 v"
#231
b111111111110 "
b11111111110 .
b110110 ;
b10000000101 K
b10100 [
b1011 k
b100 >"
b11001100100 j"
b10101011100 v"
#232
b10100 >"
b111111110001 j"
b1101001000 v"
#233
b100000000010 "
b111111111110 .
b1100100111 ;
b11100100100 K
b1111111111111010 [
b111 k
b11000 >"
b110101111110 j"
b1000011 v"
#234
b10110 >"
b101010100101 j"
b111111000000 v"
#235
b10 "
b100000000010 .
b10010000101 ;
b11110010000 K
b1111111111101111 [
b10 k
b1101 >"
b101010001110 j"
b110001011100 v"
#236
b1111111111111111 >"
b100110011001 j"
b100101110101 v"
#237
b11111111110 "
b10 .
b10101011110 ;
b100001000111 K
b1111111111010110 [
b1111111111111101 k
b1111111111110110 >"
b10000000100 j"
b110111101111 v"
#238
b1111111111101011 >"
#239
b111111111110 "
b11111111110 .
b11011000011 ;
b100100010001 K
b1111111111011011 [
b1111111111111000 k
b10010 >"
b11111111111 j"
b1100111101 v"
#240
b100011 >"
b10101000001 j"
b10101001111 v"
#241
b11111111110 "
b10 .
b11111110101 ;
b100011101111 K
b1111111111011000 [
b1111111111110100 k
b10 >"
b110010011110 j"
b1101101000 v"
#242
b1111111111101111 >"
b101000110101 j"
b111110011110 v"
#243
b111111111110 "
b11111111110 .
b100001011010 ;
b100010000001 K
b1111111111011011 [
b1111111111110001 k
b1111111111001100 >"
b101010001100 j"
b101111000011 v"
#244
b1001101010 {
b11001011100 -"
1="
b100100 >"
b100111100010 j"
b100110011100 v"
#245
b100000000010 "
b111111111110 .
b100010011000 ;
b100100101000 K
b1111111111101111 [
b1111111111110000 k
0="
b1010 >"
b10000000000100 N"
0^"
b0 _"
1e"
b11 f"
b1111011100 j"
b111000001110 v"
#246
b1111111111111101 >"
b11111111111 j"
b1101001111 v"
#247
b10 "
b100000000010 .
b100010101001 ;
b100100010110 K
b1111111111111101 [
b1111111111110001 k
b1111111111110011 >"
b11000000010 j"
b10101001011 v"
#248
b1111111111100111 >"
b1011000 j"
b1101001110 v"
#249
b11111111110 "
b10 .
b100010110111 ;
b100011100111 K
b1111111111110110 [
b1111111111110010 k
b1111111111100110 >"
b110100101000 j"
b1100010 v"
#250
b1111111111101101 >"
b101011000011 j"
b111111001000 v"
#251
b111111111110 "
b11111111110 .
b100000011011 ;
b100011101101 K
b1111111111111000 [
b1111111111110100 k
b1111111111111001 >"
b101010101001 j"
b110001010110 v"
#252
b1011 >"
b100110001101 j"
b100101101100 v"
#253
b100000000010 "
b111111111110 .
b11010101001 ;
b100001001101 K
b1111111111111100 [
b1111111111110110 k
b1111111111010110 >"
b10000011011 j"
b110111101010 v"
#254
b1111111111011101 >"
#255
b10 "
b100000000010 .
b10110011101 ;
b11111100010 K
b1111111111110010 [
b1111111111110111 k
b1111111111111100 >"
b11111111111 j"
b1101001110 v"
#256
b110001 >"
b10101001111 j"
b10100111010 v"
#257
b11111111110 "
b10 .
b10000110100 ;
b11001010101 K
b1111111111100111 [
b1111111111111001 k
b1111111111011001 >"
b110011000101 j"
b1101011110 v"
#258
b1111111111110011 >"
b101000111110 j"
b111110101001 v"
